46.89661538461539, 19.66586046511629
47.204673596673594, 16.290232558139543
47.028640332640336, 13.758511627906984
47.424715176715175, 11.226790697674424
47.424715176715175, 8.273116279069775
47.556740124740124, 14.60241860465117
47.68876507276507, 5.741395348837216
47.82079002079002, 9.538976744186058
47.95281496881497, 2.7877209302325667
48.21686486486487, 5.319441860465126
48.48091476091476, 1.9438139534883803
48.744964656964655, 4.47553488372094
49.00901455301455, 1.9438139534883803
49.27306444906445, 3.631627906976753
49.801164241164244, 2.7877209302325667
49.801164241164244, 0.25600000000000733
50.32926403326403, 1.0999069767441938
50.85736382536383, 1.0999069767441938
51.12141372141372, -0.5879069767441791
51.385463617463614, 2.7877209302325667
51.51748856548856, 0.25600000000000733
51.91356340956341, 2.7877209302325667
52.441663201663204, 2.7877209302325667
52.7057130977131, 0.677953488372097
52.96976299376299, 4.47553488372094
53.277821205821205, 11.226790697674424
53.23381288981289, 7.007255813953499
53.10178794178794, 1.0999069767441938
53.5418711018711, 16.290232558139543
53.36583783783784, 3.631627906976753
53.76191268191268, 21.353674418604662
53.629887733887735, 11.226790697674424
54.025962577962574, 23.88539534883722
54.06997089397089, 17.978046511627916
53.89393762993763, 15.446325581395357
54.42203742203742, 19.66586046511629
54.55406237006237, 15.446325581395357
54.55406237006237, 12.07069767441861
54.818112266112266, 8.273116279069775
55.08216216216216, 10.382883720930238
55.34621205821206, 7.007255813953499
55.61026195426196, 9.538976744186058
55.87431185031185, 7.007255813953499
56.138361746361745, 9.538976744186058
56.270386694386694, 7.007255813953499
56.66646153846153, 9.538976744186058
57.19456133056133, 9.538976744186058
57.19456133056133, 7.007255813953499
57.72266112266112, 7.8511627906976855
57.72266112266112, 5.319441860465126
58.25076091476092, 7.8511627906976855
58.25076091476092, 5.319441860465126
58.778860706860705, 7.8511627906976855
59.0429106029106, 4.897488372093029
59.3069604989605, 7.007255813953499
59.57101039501039, 4.053581395348843
59.879068607068604, 1.381209302325587
60.4071683991684, 4.756837209302333
60.23113513513513, 1.9438139534883803
60.89125987525988, 7.8511627906976855
60.89125987525988, 5.319441860465126
61.41935966735967, 7.007255813953499
61.28733471933472, 5.319441860465126
61.94745945945946, 5.319441860465126
61.81543451143451, 3.631627906976753
62.47555925155925, 4.47553488372094
62.47555925155925, 1.9438139534883803
63.00365904365904, 2.7877209302325667
63.57576715176715, 3.06902325581396
64.05985862785863, 4.47553488372094
64.05985862785863, 1.9438139534883803
64.58795841995843, 2.7877209302325667
64.85200831600832, 0.25600000000000733
65.1160582120582, 2.7877209302325667
65.3801081081081, 0.25600000000000733
65.644158004158, 2.7877209302325667
65.9082079002079, 0.25600000000000733
66.1722577962578, 1.9438139534883803
66.70035758835759, 1.0999069767441938
66.70035758835759, -1.4318139534883656
67.22845738045737, 4.47553488372094
67.22845738045737, 1.0999069767441938
67.09643243243244, -1.4318139534883656
67.5365155925156, 7.8511627906976855
67.8005654885655, 12.914604651162797
68.0646153846154, 8.413767441860472
68.15263201663201, 12.914604651162797
68.54870686070686, 8.695069767441872
68.54870686070686, 5.319441860465126
68.81275675675676, 1.9438139534883803
69.12081496881497, 4.756837209302333
69.64891476091476, 8.132465116279079
69.4728814968815, 5.319441860465126
70.17701455301454, 11.508093023255825
70.00098128898128, 8.695069767441872
70.66110602910604, 14.60241860465117
70.52908108108107, 12.07069767441861
70.96916424116424, 17.978046511627916
71.49726403326403, 21.353674418604662
71.32123076923077, 17.978046511627916
72.02536382536383, 28.104930232558154
71.98135550935551, 23.88539534883722
71.84933056133056, 21.353674418604662
72.2454054054054, 33.168372093023265
72.55346361746362, 39.91962790697676
72.50945530145529, 35.70009302325583
72.37743035343036, 29.792744186046527
72.37743035343036, 27.261023255813967
72.77350519750519, 44.983069767441876
72.77350519750519, 31.90251162790699
73.03755509355508, 41.60744186046513
73.03755509355508, 38.231813953488384
73.03755509355508, 34.85618604651164
73.03755509355508, 28.104930232558154
73.16958004158005, 44.983069767441876
73.30160498960498, 31.480558139534896
73.30160498960498, 24.729302325581408
73.30160498960498, 21.353674418604662
73.30160498960498, 17.978046511627916
73.30160498960498, 14.60241860465117
73.43362993762995, 28.104930232558154
73.6096632016632, 11.226790697674424
73.56565488565488, 7.007255813953499
73.56565488565488, 3.631627906976753
73.56565488565488, 0.25600000000000733
73.43362993762995, -1.4318139534883656
73.69767983367984, 16.290232558139543
73.82970478170478, -3.963534883720925
73.82970478170478, -7.339162790697671
73.82970478170478, -10.29283720930232
73.96172972972973, 2.7877209302325667
73.96172972972973, -0.5879069767441791
74.13776299376299, -14.090418604651163
73.96172972972973, -16.622139534883715
74.22577962577962, -9.026976744186044
74.35780457380457, -19.15386046511628
74.35780457380457, -22.529488372093027
74.48982952182952, -15.778232558139536
74.62185446985447, -25.905116279069773
74.62185446985447, -29.28074418604652
74.75387941787942, -22.529488372093027
74.88590436590437, -32.65637209302325
74.88590436590437, -35.18809302325582
75.19396257796257, -25.905116279069773
75.14995426195426, -29.7026976744186
75.45801247401246, -20.841674418604654
75.67805405405406, -15.778232558139536
75.5460291060291, -25.905116279069773
75.94210395010396, -13.246511627906976
75.98611226611226, -19.15386046511628
75.94210395010396, -22.529488372093027
76.33817879417879, -17.46604651162791
76.47020374220375, -21.685581395348834
76.47020374220375, -25.06120930232558
76.47020374220375, -28.436837209302325
76.77826195426195, -32.093767441860464
76.86627858627858, -27.592930232558146
77.26235343035343, -30.968558139534878
77.26235343035343, -33.500279069767444
77.83446153846154, -30.6872558139535
78.318553014553, -29.28074418604652
78.318553014553, -31.81246511627907
78.8466528066528, -29.28074418604652
79.3747525987526, -27.592930232558146
79.3747525987526, -30.1246511627907
79.90285239085239, -27.592930232558146
79.90285239085239, -30.546604651162795
80.16690228690229, -33.07832558139535
80.29892723492723, -29.28074418604652
80.43095218295218, -36.032
80.56297713097713, -32.65637209302325
80.69500207900208, -39.40762790697674
80.82702702702703, -36.032
80.95905197505198, -42.78325581395349
80.95905197505198, -46.158883720930234
81.09107692307691, -39.40762790697674
81.26711018711018, -49.53451162790698
81.22310187110187, -53.75404651162792
81.09107692307691, -55.44186046511629
81.35512681912681, -44.47106976744186
81.53116008316007, -57.973581395348845
81.48715176715177, -62.19311627906977
81.6191767151767, -52.910139534883726
81.79520997920997, -66.41265116279071
81.75120166320167, -69.78827906976746
82.01525155925157, -57.973581395348845
82.01525155925157, -61.34920930232559
82.27930145530145, -47.84669767441861
82.27930145530145, -51.22232558139535
82.27930145530145, -54.5979534883721
82.1472765072765, -64.72483720930234
82.1472765072765, -68.10046511627908
82.54335135135135, -37.71981395348837
82.54335135135135, -41.095441860465115
82.54335135135135, -44.47106976744186
82.4113264033264, -57.973581395348845
82.4113264033264, -60.5053023255814
82.80740124740124, -30.968558139534878
82.80740124740124, -34.34418604651162
82.6753762993763, -47.84669767441861
82.6753762993763, -50.37841860465117
82.9394261954262, -37.71981395348837
82.9394261954262, -41.095441860465115
83.33550103950104, -31.81246511627907
83.20347609147609, -33.500279069767444
83.86360083160082, -32.65637209302325
84.12765072765072, -35.18809302325582
84.39170062370061, -33.500279069767444
84.91980041580041, -34.34418604651162
85.4479002079002, -32.65637209302325
85.31587525987526, -35.18809302325582
86.0200083160083, -30.968558139534878
85.84397505197505, -33.500279069767444
86.5481081081081, -28.999441860465126
86.37207484407485, -31.81246511627907
87.03219958419959, -26.749023255813952
87.03219958419959, -29.28074418604652
87.56029937629938, -28.436837209302325
87.42827442827442, -30.1246511627907
87.86835758835758, -32.65637209302325
87.69232432432432, -35.18809302325582
88.13240748440748, -37.71981395348837
88.08839916839916, -41.93934883720931
87.95637422037422, -43.62716279069768
88.22042411642411, -32.65637209302325
88.39645738045738, -46.158883720930234
88.35244906444906, -50.37841860465117
88.22042411642411, -52.066232558139546
88.48447401247401, -41.095441860465115
88.61649896049896, -54.5979534883721
88.61649896049896, -57.973581395348845
88.61649896049896, -61.34920930232559
88.74852390852391, -51.22232558139535
88.88054885654886, -64.72483720930234
89.0125738045738, -61.34920930232559
