47.07365344467641, 12.545692414752978
47.38299791231733, 9.741600556715397
47.86911064718163, 8.33517049408492
47.73653444676409, 6.65692414752958
48.39941544885178, 7.488155880306209
48.929720250521925, 6.641141266527498
48.797144050104386, 4.962894919972186
49.460025052192066, 4.954126652748798
49.460025052192066, 2.4341266527487875
49.990329853862214, 2.4271120389700798
50.52063465553236, 2.420097425191372
51.0509394572025, 2.4130828114126643
51.31609185803758, 0.3095755045233233
51.84639665970772, 0.7225608907446173
51.84639665970772, -1.7974391092553788
52.37670146137787, 2.395546276965902
52.24412526096033, -0.12270006958941337
52.68604592901879, 6.031454418928334
53.17215866388309, 6.5850243562978505
53.17215866388309, 4.0650243562978545
53.70246346555324, 3.2180097425191434
53.5698872651357, 1.5397633959638313
54.276960334029226, 4.330410577592218
54.100192066805846, 1.5327487821851236
54.76307306889353, 6.563980514961727
55.33756993736952, 9.356381350034795
55.16080167014614, 6.5587195546277
55.867874739039664, 10.749366736256093
56.08883507306889, 6.1264439805149635
56.22141127348643, 9.06469032707031
56.39817954070982, 2.3423521224773936
56.61913987473904, -2.2805706332637357
56.75171607515658, 0.6576757132915958
56.88429227557411, -5.22407794015308
57.14944467640919, -2.707585247042431
57.67974947807933, -1.034599860821146
57.5471732776618, -3.5528462073764757
58.210054279749485, -1.0416144745998537
58.740359081419626, -1.8886290883785506
59.27066388308977, -1.055643702157269
59.80096868475992, 0.61734168406403
59.668392484342384, -1.9009046624912855
60.331273486430064, -0.22967292971468112
60.19869728601253, -1.9079192762699932
60.86157828810021, -1.076687543493378
61.39188308977036, -1.0837021572720857
61.9221878914405, -0.25071677105079004
61.78961169102297, -1.9289631176061164
62.45249269311065, -1.0977313848295012
62.71764509394572, -3.2012386917188564
63.24794989561587, -1.1082533054975556
63.11537369519833, -3.6264996520528854
63.778254697286016, 0.5647320807237435
63.645678496868484, -1.9535142658315863
64.30855949895616, 0.5577174669450358
64.83886430062631, -0.28929714683367536
64.70628810020878, -1.9675434933889875
65.36916910229645, -1.1363117606123865
65.94366597077244, -2.5439109255393078
66.42977870563675, 0.5296590118302049
66.29720250521922, -1.9885873347251106
67.00427557411274, 3.8820598469032745
66.82750730688936, 1.364398051496181
67.5345803757829, 8.915045233124573
67.3578121085595, 5.557383437717476
68.02069311064719, 11.428615170494098
68.02069311064719, 8.068615170494098
68.28584551148225, 4.285107863604736
68.4184217118998, 7.223354210160068
68.55099791231733, 0.92160055671539
68.68357411273487, 3.8598469032707072
68.86034237995825, -2.302491301322206
69.34645511482255, -2.8689213639526656
69.87675991649269, -3.7159359777313767
69.74418371607516, -5.394182324286689
70.40706471816284, -5.402950591510077
70.27448851774531, -7.081196938065403
70.937369519833, -7.929965205288795
71.20252192066806, -10.033472512178136
71.73282672233822, -10.460487125956845
71.73282672233822, -12.980487125956842
72.13055532359081, -11.305748086290876
72.26313152400836, -14.667501739735556
72.52828392484344, -18.031009046624916
72.83762839248435, -21.395100904662485
73.05858872651358, -26.0180236604036
73.19116492693112, -23.079777313848297
73.32374112734865, -29.381530967292974
73.45631732776619, -26.443284620737643
73.63308559498957, -33.16562282533056
73.8540459290188, -37.78854558107167
73.98662212943634, -34.85029923451637
74.16339039665971, -41.57263743910926
73.98662212943634, -44.09029923451635
74.42854279749479, -46.61614474599861
74.38435073068894, -50.81556019485038
74.64950313152401, -55.01906750173973
74.78207933194156, -51.66082115518441
74.91465553235909, -58.38257480862907
74.91465553235909, -61.32257480862907
75.17980793319416, -63.84608211551844
75.48915240083508, -66.79017397355602
75.71011273486431, -71.41309672929714
75.84268893528184, -68.47485038274183
75.97526513569937, -74.77660403618651
76.10784133611692, -71.83835768963115
76.50556993736953, -76.0436186499652
76.372993736952, -77.72186499652054
76.77072233820459, -80.24712595685455
77.03587473903967, -82.77063326374392
77.30102713987475, -80.25414057063327
77.83133194154489, -80.26115518441196
78.36163674321503, -80.26816979819066
78.62678914405012, -82.37167710508001
79.15709394572025, -81.95869171885874
79.6873987473904, -81.96570633263744
79.99674321503133, -84.76979819067503
80.48285594989562, -86.17622825330548
80.48285594989562, -88.69622825330549
81.01316075156578, -89.54324286708422
80.88058455114823, -91.22148921363953
81.54346555323592, -90.39025748086291
82.07377035490606, -90.39727209464161
81.94119415448853, -92.91551844119695
82.33892275574114, -87.04077940153095
82.64826722338205, -83.68487125956855
83.13437995824636, -82.01130132219902
83.6646847599165, -82.01831593597774
84.19498956158665, -82.02533054975643
84.7252943632568, -82.87234516353516
84.59271816283925, -84.55059151009047
85.25559916492693, -83.71935977731385
85.83009603340292, -83.4469589422408
86.31620876826723, -82.05338900487126
86.84651356993737, -82.06040361864996
87.37681837160753, -82.06741823242868
87.64197077244259, -84.17092553931803
88.17227557411275, -84.59794015309674
88.17227557411275, -87.11794015309673
88.70258037578289, -87.12495476687542
88.96773277661796, -88.80846207376479
