46.88499429021743, -28.595893255005947
47.09199590213848, -17.43737622237346
47.09563549091951, -20.7857979009206
47.09927507970054, -24.13421957946771
47.38786414012967, -7.396155174266582
47.34858691120106, -11.581104559945558
47.352226499982095, -14.92952623849267
47.233484916001004, -26.64726897589283
47.59789874270158, 0.9720104595765946
47.60153833148261, -2.3764112189705315
47.8535798545689, 7.665387541641294
47.85721944334993, 4.316965863094168
47.73665806497833, -5.72656603503242
48.15672727012215, 11.009765232653919
48.67688516674428, 16.30450034029444
48.505521194970804, 12.679354371888095
49.15837243256797, 16.85621578249811
49.16110212415374, 14.34489952358777
49.68793260020776, 13.50086155389188
49.69066229179353, 10.98954529498154
50.217492767847546, 10.145507325285664
50.08783241752337, 8.47302962352687
50.485002543253216, 5.9565139520722
50.751147472865995, 3.023178708313921
51.010923122111976, 5.949581402013095
51.314070537665216, 9.293959093025748
51.834531733352435, 14.309659060787325
51.79525450442382, 10.124709675108349
52.18878504137264, 10.956615682200791
52.32390477486836, 7.606460866138903
52.32708941505176, 4.676591897410162
52.59368929326217, 1.324703943833498
52.72198479779346, 4.2528397750474625
52.904570834975104, -2.446314432066501
53.17299050757603, -7.472413224916707
53.13371327864742, -11.657362610595712
53.401223054053084, -15.846355983809175
53.40440769423648, -18.776224952537902
53.52906360998675, -12.499667442776811
53.671462521044525, -22.54666561593295
53.674647161227924, -25.476534584661707
53.93078322169288, -19.201710212415392
53.809311946126016, -28.40813669090521
54.186464333560195, -12.508333130350692
54.19010392234122, -15.856754808897833
54.06590295518859, -22.55186502847728
54.069542543969625, -25.90028670702442
54.438505856646486, -2.4665343697388806
54.44214544542751, -5.8149560482859926
54.44578503420855, -9.163377726833133
54.32522365583695, -19.20690962495972
54.694186968513804, 4.226842712325819
54.69782655729484, 0.8784210337786931
54.99369479528603, 10.919642081885584
54.953962617759785, 7.153245406024993
54.8320363935953, -1.6346283626464242
55.20736898663897, 15.939386037181634
55.50687681341118, 22.632185406741414
55.46714463588494, 18.865788730880823
55.34248872013468, 12.589231221119746
55.72055100476412, 27.651929362037464
55.98715088297453, 24.300041408460785
55.99079047175556, 20.95161972991366
55.99443006053659, 17.603198051366547
56.304856653651896, 14.250732385284948
56.265579424723285, 10.065782999605972
56.13591907439911, 8.393305297847178
56.57691591503385, 5.8762119138875875
56.53763868610524, 1.6912625282086111
56.40797833578107, 0.01878482644981716
56.848975176415806, -2.498308557509773
56.676398008381994, -5.007313966400417
57.117394849016726, -7.5244073503599935
57.34153285811513, -12.131375720886908
57.46982836264642, -9.203239889672957
57.60813273632554, -15.4832636744636
57.91173510047641, -12.557438693269333
58.16923600673425, -7.538272450478203
58.003938016262495, -16.744121216463085
58.38291019808719, -2.518528495182153
58.26143892252033, -11.724954973671956
58.642230898735534, 0.8264269083354208
58.5180299315829, -5.868683311244041
58.77007145466919, 4.173115449367771
58.90792087975069, -1.6883556256044727
59.16906137478955, -0.017611061360469193
59.43657115019522, -4.206604434573919
59.74669444424544, -7.280034960776604
60.27079522871369, -5.612756671562124
60.749552802951605, -2.549724970448125
60.752737443135004, -5.479593939176851
61.14581303148619, -4.2291352222660095
61.28093276498191, -7.579290038327898
61.59135935809722, -10.931755704409525
62.0643542500985, -2.567056345595887
62.06799383887953, -5.915478024142999
62.07117847906294, -8.84534699287174
61.9437928717269, -12.61058824372246
62.323674950746856, 0.7778990579216867
62.579356062614174, 7.4712761399863865
62.58299565139521, 4.12285446143926
62.45788478704732, -1.7351503385034306
62.83958666045778, 9.979126123867175
63.367327033707056, 8.2979827345345
63.370056725292834, 5.786666475624159
63.89688720134685, 4.942628505928283
63.900526790127884, 1.5942068273811572
63.770866439803704, -0.0782708743776368
64.21186328043845, -2.595364258337227
64.03928611240462, -5.104369667227871
64.48028295303936, -7.621463051187433
64.44100572411075, -11.806412436866438
64.75234221442132, -15.995983522584808
65.00984312067916, -10.976817279793678
65.2235173120321, -5.957073324497614
65.48283801268045, -2.6121179209800545
65.35863704552781, -9.30722814055953
65.78234583945266, 4.0806814485797105
65.74261366192643, 0.3142847727191338
65.6170478489809, -5.125167317405172
66.03620715692946, 12.44826936991798
65.99692992800085, 8.26331998423899
66.29006847440627, 20.815857291256222
66.25079124547767, 16.630907905577246
66.13204966149658, 4.913165168177102
66.50010307697818, 29.1840229250994
66.50374266575922, 25.835601246552287
66.38591097897338, 13.280753089515343
66.7603336748218, 31.691872908980187
66.81416925887453, 22.483135580470687
66.6415920908407, 19.974130171580043
66.89636330551278, 27.504612673281514
67.03876221657055, 17.457614500125374
67.04240180535157, 14.109192821578247
67.0460413941326, 10.760771143031121
67.049226034316, 7.830902174302395
67.1666027725042, 20.80430304115771
67.31628086112404, 4.060461510907331
67.31992044990508, 0.7120398323602046
67.32356003868611, -2.6363818461869215
67.3267446788695, -5.566250814915648
67.44412141705772, 7.407150051939681
67.59379950567754, -9.336691478310698
67.59743909445857, -12.68511315685781
67.6010786832396, -16.03353483540495
67.60471827202063, -19.381956513952062
67.85403010352115, -6.828841494429909
67.86949835584053, -21.059633628255185
68.12153987892682, -11.017834867643373
68.12472451911022, -13.9477038363721
67.9973389117742, -17.71294508722282
68.37358140201312, -0.9760361070315611
68.37722099079414, -4.324457785578687
68.38040563097753, -7.2543267543073995
68.67308922878533, 5.716763262528204
68.63381199985672, 1.5318138768492275
69.025522742415, 4.03793072321524
69.16064247591073, 0.6877759071533376
69.47106906902604, -2.6646897589282617
69.95498272737042, -4.345255435755988
70.524426722069, -4.073730558441099
71.04670771214671, -0.7322414299530777
70.874433843178, -3.520281978722636
71.56898870222446, 2.6092476985349435
71.39671483325571, -0.17879285023462899
72.05229576243866, 1.48675230146506
71.92263541211449, -0.18572540029373386
72.36363225274923, -2.7028187842533242
72.84754591109359, -4.383384461081064
72.71879545796469, -6.892967582476629
73.41517011140165, -2.4376487444925914
73.24289624243292, -5.225689293262178
73.93411481176344, 3.9732269226636134
73.89438263423719, 0.20683024680302253
73.76517723251067, -1.8842001647741569
74.19161571802127, 8.992393165454743
74.4491166242791, 14.011559408245873
74.28381863380736, 4.8057106422609905
74.66279081563205, 19.031303363541923
74.92939069384246, 15.679415409965245
74.93257533402587, 12.749546441236518
75.19917521223627, 9.39765848765984
75.45986075867751, 11.486955761722243
75.46486519325143, 6.882875953719946
75.7310101228642, 3.9495407099616813
75.9830516459505, 13.991339470573493
75.98669123473152, 10.642917792026367
75.85885067879786, 7.296229250994031
76.23873275781781, 20.68471655263818
76.24237234659884, 17.336294874091067
76.53824058459003, 27.377515922197944
76.49896335566143, 23.192566536518967
76.62043463122828, 32.398993015008784
76.88703450943869, 29.047105061432106
76.89067409821972, 25.698683382884994
77.02579383171545, 22.34852856682309
77.02943342049647, 19.000106888275965
77.29603329870687, 15.648218934699287
77.2996728874879, 12.299797256152175
77.61009948060322, 8.947331590070561
77.5708222516746, 4.762382204391599
77.83833202708027, 0.5733888311781357
77.84151666726368, -2.356480137550591
77.96617258301393, 3.9200773722104856
78.10857149407171, -6.126920800945655
78.23641205000537, -2.780232259913319
78.37517137228213, -9.478808754522348
78.37881096106315, -12.82723043306946
78.38199560124656, -15.757099401798214
78.64905042805458, -19.527540065193264
78.65223506823799, -22.45740903392199
78.77689098398825, -16.1808515241609
78.91928989504603, -26.22784969731704
78.92292948382706, -29.576271375864152
79.0471304509797, -22.881161156284676
79.23335607694236, -32.92873704194578
79.19407884801376, -37.11368642762473
79.06441849768959, -38.78616412938352
79.50541533832431, -41.30325751334313
79.4661381093957, -45.4882068990221
79.77747459970627, -49.67777798474047
79.60580732886771, -53.0238888132679
79.9911487910592, -44.65803402944441
80.29429620661244, -41.313656338431784
80.12535862735967, -47.171083425869526
80.5079703979654, -36.29391238313572
80.76729109861375, -32.94895697961816
80.64309013146112, -39.64406719919761
81.0266117992621, -29.604001576100572
80.90150093491421, -35.46200637604328
81.32945591575026, -25.980588745209005
81.16082163556256, -32.11705097252569
81.54343340616828, -21.239879929791883
81.67764324246875, -23.752929326217
82.06935398502705, -21.246812479850988
82.5952745638858, -21.253745029910093
82.85459526453415, -17.908789626392505
83.11391596518251, -14.563834222874945
82.98880510083461, -20.421839022817622
83.37323666583086, -11.218878819357386
83.24812580148296, -17.076883619300062
83.6325573664792, -7.873923415839798
83.50744650213132, -13.731928215782503
83.8991572446896, -11.22581136941649
84.16575712290003, -14.577699322993155
84.47618371601533, -17.930164989074754
84.96100727155496, -20.447836085539265
84.96373696314075, -22.959152344449606
85.49056743919476, -23.80319031414551
85.49329713078052, -26.31450657305585
86.01921770963929, -26.321439123114956
86.54604818569331, -27.165477092810832
86.54877787727906, -29.676793351721173
87.07560835333308, -30.520831321417077
87.07924794211412, -33.86925299996419
87.47459827345345, -34.71155783214529
87.60971800694917, -38.061712648207205
87.61290264713256, -40.99158161693593
87.8799574739406, -44.76202228033098
87.88314211412401, -47.69189124905971
88.00779802987427, -41.415333739298646
88.19402365583693, -51.46290962495969
88.15474642690833, -55.6478590106387
88.422256202314, -59.83685238385213
88.42544084249741, -62.76672135258089
88.55009675824766, -56.4901638428198
88.69113082351257, -65.28150388652078
