46.89682987551868, 27.213034501572167
47.16033195020747, 23.868134215853786
47.16033195020747, 20.519760513431635
47.16033195020747, 17.589933523812263
47.4677510373444, 13.827065428075073
47.423834024896266, 9.64101939726342
47.29208298755187, 7.965095837700474
47.7312531120332, 5.459604588723465
47.68733609958507, 1.2735585579118265
47.55558506224067, -0.402365001651134
47.994755186721996, -2.6288251087596137
48.21434024896266, 8.81434622176917
48.21434024896266, 5.465972519347019
48.21434024896266, 2.1175988169248825
48.47784232365146, 18.86294074573935
48.47784232365146, 15.514567043317214
48.47784232365146, 12.166193340895063
48.34609128630706, -0.3919447515398673
48.74134439834025, 28.911535269709546
48.74134439834025, 25.563161567287395
48.74134439834025, 22.214787864865258
49.00484647302905, 32.26338238883545
49.00484647302905, 19.288434291949642
49.13659751037345, 28.916745394765186
49.13659751037345, 25.568371692343035
49.26834854771785, 22.22173469827277
49.26834854771785, 15.524987293428481
49.26834854771785, 12.17661359100633
49.40009958506224, 18.875097704202503
49.57576763485477, 8.83229220807192
49.531850622406644, 4.646246177260267
49.531850622406644, 1.2978724748381154
49.40009958506224, -0.37805108472483084
49.83926970954357, -2.8835423337018398
49.79535269709544, -7.0695883645134785
49.79535269709544, -10.417962066935644
50.05885477178423, 2.1419127338511856
50.32235684647303, 15.538880960243517
50.32235684647303, 12.190507257821366
50.32235684647303, 8.84213355539923
50.32235684647303, 5.493759852977078
50.190605809128634, -1.2047242602190948
50.190605809128634, -4.553097962641246
50.190605809128634, -7.901471665063383
50.190605809128634, -10.412751941880003
50.62977593360996, 32.28480179184196
50.58585892116183, 28.09875576103032
50.58585892116183, 24.750382058608167
50.58585892116183, 21.40200835618603
50.58585892116183, 18.472181366566645
50.45410788381743, 2.9842162845123426
50.849360995850624, 44.00700426423926
50.849360995850624, 40.658630561817105
50.849360995850624, 37.31025685939497
51.15678008298755, 34.244966618329045
51.24461410788382, 42.33802753808382
51.37636514522822, 38.15429711840801
51.639867219917015, 33.13520998147855
51.639867219917015, 29.786836279056402
51.50811618257262, 28.11091271949347
51.94728630705394, 25.884452612384962
52.210788381742745, 33.979829143275566
52.16687136929461, 29.793783112463927
52.47429045643154, 42.354236816034685
52.430373443983406, 38.16819078522305
52.6938755186722, 50.72806558600985
52.6938755186722, 47.37969188358771
52.957377593361, 54.079912705135754
52.957377593361, 44.45333831067208
53.2208796680498, 49.89791899381183
53.2208796680498, 46.54954529138968
53.48438174273859, 41.53045815446022
53.48438174273859, 38.18208445203807
53.48438174273859, 34.83371074961593
53.79180082987552, 30.652295941075977
53.747883817427386, 26.88479662306709
54.055302904564314, 35.678329911412945
54.318804979253116, 47.401111286594215
54.27488796680498, 43.21506525578258
54.27488796680498, 39.866691553360425
54.14313692946058, 30.656927163347646
54.14313692946058, 27.308553460925495
54.58230705394191, 59.12389266177547
54.53839004149378, 54.93784663096383
54.53839004149378, 51.589472928541696
54.40663900414938, 36.52005455929016
54.80189211618257, 70.84609513417277
54.80189211618257, 67.49772143175063
54.80189211618257, 64.1493477293285
54.67014107883818, 48.242835934471415
55.06539419087137, 60.8044474436101
55.06539419087137, 57.45607374118796
55.197145228215774, 70.85130525922841
55.197145228215774, 67.50293155680626
55.197145228215774, 64.15455785438412
55.3728132780083, 54.111752358253526
55.32889626556017, 49.92570632744189
55.32889626556017, 46.577332625019736
55.32889626556017, 43.2289589225976
55.197145228215774, 41.55303536303465
55.636315352697096, 39.04754411405763
55.59239834024896, 34.86149808324599
55.59239834024896, 31.51312438082384
55.59239834024896, 28.164750678401703
55.46064730290456, 26.488827118838756
55.8998174273859, 23.983335869861747
55.855900414937764, 19.797289839050094
55.855900414937764, 16.448916136627943
55.855900414937764, 13.100542434205806
56.11940248962656, 8.918548722881894
56.11940248962656, 5.570175020459743
56.25115352697095, 12.268659133655902
56.38290456431535, 2.2252747347413617
56.38290456431535, -1.1230989676807894
56.38290456431535, -4.471472670102941
56.69032365145229, -7.815794053037365
56.646406639004155, -12.001840083849004
56.646406639004155, -15.350213786271155
56.90990871369295, -19.532207497595095
57.04165975103734, -16.182097086821045
57.173410788381744, -21.621467644905152
57.74433195020747, -21.19539519591092
57.963917012448135, -16.169940128357894
58.22741908713694, -6.121345604387699
58.22741908713694, -9.46971930680985
58.22741908713694, -12.818093009232001
58.095668049792536, -19.516577122428174
58.095668049792536, -22.864950824850325
58.490921161825725, 3.927248919582482
58.490921161825725, 0.5788752171603448
58.490921161825725, -2.7694984852618063
58.35917012448133, -15.327636577696722
58.754423236514526, 13.975843443552677
58.754423236514526, 10.627469741130525
58.754423236514526, 7.2790960387083885
58.622672199170125, -5.279042053726542
59.01792531120332, 4.3527424657927725
59.14967634854772, 13.981053568608303
59.14967634854772, 10.632679866186152
59.281427385892115, 6.448949446510355
59.32534439834025, 0.5898743700555684
59.54492946058092, -4.42979166965786
59.54492946058092, -7.359618659277231
59.80843153526971, -1.9150379761374836
59.852348547717845, -11.122486755014421
59.80843153526971, -14.47143936022053
60.071933609958506, -6.09703168746141
60.37935269709544, 7.300515441714893
60.33543568464731, 3.1144694109032542
60.33543568464731, -0.2339042915188969
60.20368464730291, -2.746921276687388
60.20368464730291, -9.443668681531676
60.20368464730291, -11.954948958348297
60.5989377593361, 19.022717914112192
60.5989377593361, 15.674344211690055
60.5989377593361, 12.325970509267904
60.90635684647303, 25.723517638444193
60.8624398340249, 21.53747160763257
60.90635684647303, 9.539711410070495
61.1259419087137, 17.355477896308642
61.1259419087137, 14.00710419388649
61.25769294605809, 20.70558830708265
61.25769294605809, 10.66046719981621
61.38944398340249, 7.313830205745958
61.38944398340249, 3.965456503323807
61.38944398340249, 0.6170828009016702
61.38944398340249, -2.731290901520481
61.38944398340249, -5.6611178911398525
61.65294605809129, -9.424564889660985
61.65294605809129, -12.772938592083136
61.65294605809129, -16.121312294505287
61.65294605809129, -19.051139284124673
61.78469709543569, -6.074454478886977
61.91644813278009, -22.81458628264585
61.78469709543569, -25.32760326781431
62.22386721991701, -12.765412855891668
62.17995020746888, -16.951458886703307
62.048199170124484, -19.464475871871826
62.48736929460581, -4.391005183132563
62.44345228215768, -8.577051213944202
62.75087136929461, 3.983402489626556
62.706954356846474, -0.20264354118508265
63.277875518672204, 5.943567316113658
63.76096265560166, 7.345090956079773
63.76096265560166, 4.415263966460401
64.0683817427386, 0.6523958707231969
64.02446473029046, -3.533650160088442
63.89271369294606, -5.209573719651388
64.15621576763486, 5.6761142299243375
64.33188381742738, -7.715064968628411
64.28796680497925, -11.90111099944005
64.28796680497925, -15.249484701862201
64.59538589211618, -19.430899510402156
64.55146887966805, -23.616945541213795
64.55146887966805, -26.965319243635946
64.81497095435685, -31.147312954959887
64.81497095435685, -34.49568665738201
64.81497095435685, -37.00696693419863
65.12239004149379, -27.79488693305001
65.34197510373444, -22.769431865497012
65.21022406639004, -32.81628968111531
65.60547717842324, -16.06921104394894
65.60547717842324, -19.41758474637109
65.47372614107884, -26.116068859567235
65.86897925311203, -12.717363924823019
65.73722821576763, -21.927128314835812
66.17639834024897, -9.085906761044669
66.00073029045643, -15.226907493287769
66.65948547717842, -6.010196269867478
66.52773443983403, -8.523213255035955
66.92298755186722, 4.038398254102717
66.92298755186722, 0.6900245516805796
66.92298755186722, -2.6583491507415715
67.18648962655601, 17.435366480495063
67.18648962655601, 14.086992778072911
67.18648962655601, 10.73861907565076
67.18648962655601, 7.390245373228623
67.44999170124481, 30.832334706887394
67.44999170124481, 27.483961004465243
67.44999170124481, 24.135587302043106
67.44999170124481, 20.787213599620955
67.31824066390041, 4.880701804763888
67.71349377593361, 44.229302933279726
67.71349377593361, 40.880929230857575
67.71349377593361, 37.53255552843544
67.71349377593361, 34.18418182601329
67.58174273858921, 18.27767003115622
67.97699585062242, 30.839281540294905
67.97699585062242, 27.90945455067552
68.1087468879668, 44.23451305833537
68.1087468879668, 40.886139355913215
68.1087468879668, 37.53776565349108
68.1087468879668, 34.18939195106893
68.28441493775934, 24.14658645493833
68.2404979253112, 19.96054042412669
68.2404979253112, 16.61216672170454
68.2404979253112, 13.263793019282403
68.3722489626556, 29.17030481413947
68.504, 9.081799307958477
68.504, 5.7334256055363255
68.504, 2.3850519031141886
68.504, -0.9633217993079626
68.63575103734439, 12.431909718732499
68.81141908713693, -4.307643182242387
68.76750207468879, -8.493689213054012
68.76750207468879, -11.842062915476163
68.76750207468879, -15.190436617898314
68.63575103734439, -16.866360177461274
69.07492116182573, -19.371851426438297
69.55800829875518, -21.876763772631335
69.55800829875518, -25.225137475053486
70.08501244813277, -14.335976108773991
70.08501244813277, -17.684349811196114
70.08501244813277, -21.032723513618265
69.95326141078839, -24.382833924392315
69.95326141078839, -27.731207626814466
70.39243153526971, -4.286802682019854
70.34851452282157, -8.472848712831478
70.34851452282157, -11.402675702450864
70.65593360995851, 4.08760499073928
70.61201659751038, -0.0984410400723732
70.74376763485478, 12.459697052362557
70.87551867219918, 9.113060058292291
70.74376763485478, -3.4450780341426253
71.1829377593361, 5.768738675357866
71.40252282157677, 1.167619348447218
71.53427385892115, 4.09918304641846
71.92952697095436, -0.08107395655358118
71.79777593360996, -1.7569975161165274
72.45653112033196, -0.9112205487516007
72.98353526970953, -0.06718028973855894
72.98353526970953, -2.578460566555165
73.51053941908714, -2.57151373314764
73.51053941908714, -5.5013407227670115
74.08146058091286, 15.852067366365631
74.03754356846474, 11.666021335553992
74.03754356846474, 8.317647633131841
74.03754356846474, 4.969273930709704
74.03754356846474, 1.620900228287553
74.03754356846474, -1.3089267613318185
73.90579253112034, -4.240490459303089
73.90579253112034, -7.588864161725212
74.30104564315353, 34.27101724360722
74.30104564315353, 30.92264354118508
74.30104564315353, 27.57426983876293
74.30104564315353, 24.225896136340793
74.30104564315353, 20.877522433918642
74.56454771784232, 54.36473287484385
74.56454771784232, 51.0163591724217
74.56454771784232, 47.667985469999564
74.56454771784232, 44.31961176757741
74.56454771784232, 40.97123806515526
74.56454771784232, 37.622864362733125
74.43279668049793, 17.53088543984839
74.82804979253112, 64.41332739881405
74.82804979253112, 61.0649536963919
74.82804979253112, 57.71657999396976
74.69629875518672, 35.113320794268404
75.09155186721992, 54.371679708251364
75.09155186721992, 51.02330600582921
75.09155186721992, 47.674932303407076
75.09155186721992, 44.74510531378769
75.22330290456432, 57.72179011902539
75.35505394190872, 40.98165831526654
75.35505394190872, 37.633284612844406
75.35505394190872, 34.284910910422255
75.35505394190872, 31.355083920802883
75.48680497925312, 44.331768726040565
75.61855601659751, 27.591636922281722
75.61855601659751, 24.243263219859585
75.61855601659751, 20.894889517437434
75.61855601659751, 17.965062527818063
75.75030705394191, 30.941747333055744
75.88205809128631, 14.201615529296902
75.75030705394191, 11.68859854412841
76.1455601659751, 17.55346264842281
76.4090622406639, 15.882749213915488
76.71648132780084, 19.514206377693853
77.19956846473029, 20.915730017659968
77.72657261410788, 20.922676851067493
78.25357676348548, 20.092530258869473
78.78058091286307, 18.42529024106591
78.78058091286307, 15.076916538643758
79.04408298755186, 10.894922827319832
79.04408298755186, 7.96509583770046
79.17583402489626, 14.245033238093868
79.3515020746888, 4.20222774196327
79.30758506224066, 0.01618171115161715
79.57108713692946, -4.165812000172295
79.57108713692946, -7.0956389897916665
79.70283817427386, -0.8157015893982731
79.87850622406638, -10.858507085528885
79.70283817427386, -13.372102973481304
80.14200829875519, -15.877594222458328
79.96634024896267, -18.391190110410776
80.40551037344397, -20.89668135938777
80.22984232365145, -23.410277247340247
80.66901244813278, -25.91576849631724
80.93251452282158, -30.934855633246713
81.41560165975105, -33.43976797943975
81.41560165975105, -36.7881416818619
81.72302074688797, -40.411494206664855
81.94260580912862, -35.94410142284886
82.25002489626556, -29.24330169851686
82.20610788381742, -33.01080101652573
82.07435684647302, -39.29073841691914
82.51352697095436, -24.217267728179877
82.73311203319503, -19.19181266062685
82.60136099585063, -28.401577050639645
82.99661410788381, -15.839965541500959
82.86486307053943, -22.538449654697132
83.26011618257262, -12.488118422375038
83.12836514522822, -18.34950910996571
83.5236182572614, -9.136271303249146
83.391867219917, -14.997661990839788
83.83103734439834, -5.783845281339282
83.7871203319502, -10.806984737756466
84.18237344398341, -7.453400910278674
84.31412448132781, -11.637131329954485
84.31412448132781, -14.985505032376636
84.5776265560166, -18.74895203089781
84.709377593361, -15.817388332926527
85.10463070539419, -19.997645335898568
84.97287966804979, -21.67356889546153
85.63163485477179, -22.501978779307677
85.93905394190871, -19.149552757397828
85.89513692946059, -24.172692213814997
86.2025560165975, -14.123518787060846
86.4660580912863, -9.097484816723863
86.29039004149378, -18.307828109520614
86.7295601659751, -4.071450846386895
86.55389211618257, -13.281794139183603
86.9930622406639, 0.954583123950087
86.81739419087137, -8.255760168846649
87.21264730290457, 5.980038191503098
87.08089626556017, -3.229726198509667
87.47614937759336, 12.680259013051142
87.47614937759336, 9.331885310629005
87.34439834024897, 2.633401197432846
87.78356846473028, 16.03268503496102
88.00315352697095, 11.013018995247592
88.00315352697095, 7.664645292825455
88.00315352697095, 4.3162715904033035
88.00315352697095, 0.9678978879811666
88.00315352697095, -1.9619291016382192
88.26665560165975, -5.725376100159366
88.26665560165975, -9.073749802581517
88.26665560165975, -12.422123505003668
88.26665560165975, -15.77049720742582
88.26665560165975, -18.700324197045205
88.39840663900415, -2.3752656893853583
88.53015767634855, -22.463771195566352
88.53015767634855, -25.812144897988475
88.53015767634855, -29.160518600410626
88.53015767634855, -32.50889230283278
88.66190871369295, -19.11366078479233
88.79365975103735, -35.85379258855119
88.79365975103735, -39.20216629097334
