47.114505186722, 4.146666666666647
47.423449170124485, 1.3466666666666356
47.906841286307056, 0.7866666666666475
48.43384543568465, 0.7866666666666475
48.96084958506225, 0.7866666666666475
49.48785373443984, 0.7866666666666475
50.013942946058094, 2.46666666666664
50.27858869294606, 0.3666666666666458
50.80536410788382, 0.7866666666666475
51.332368257261415, 0.7866666666666475
51.85937240663901, 0.7866666666666475
52.124018153526976, -1.3133333333333468
52.6512510373444, -1.7333333333333485
53.178712655601664, -2.573333333333352
53.70480186721992, -0.8933333333333451
53.57442323651453, -3.4133333333333553
54.23180601659752, -0.8933333333333451
54.75789522821577, 0.7866666666666475
54.62751659751038, -1.7333333333333485
55.285814315352695, -0.8933333333333451
55.81327593360996, -1.7333333333333485
56.34073755186722, -2.573333333333352
56.605383298755186, -4.673333333333346
57.13261618257262, -5.093333333333348
57.66007780082988, -5.933333333333351
58.22993153526971, -3.9733333333333434
58.055788381742744, -6.773333333333355
58.71042634854773, 0.7866666666666475
58.712027489626564, -2.15333333333335
59.23788796680498, -0.05333333333335588
59.10705186721992, -1.7333333333333485
59.76534958506224, -0.8933333333333451
59.766721991701246, -3.4133333333333553
60.334440871369296, 2.46666666666664
60.16060269709544, -0.8933333333333451
60.81478319502075, 7.506666666666646
60.81638433609959, 4.566666666666649
61.34315975103735, 4.98666666666665
61.344532157676355, 2.46666666666664
61.87199377593362, 1.626666666666651
61.87336618257262, -0.8933333333333451
62.400370331950214, -0.8933333333333451
62.9273744813278, -0.8933333333333451
63.45437863070539, -0.8933333333333451
63.98092531120332, -0.05333333333335588
63.98229771784233, -2.573333333333352
64.50930186721992, -2.573333333333352
64.81824585062242, -5.373333333333363
65.30072302904564, -4.253333333333359
65.17034439834025, -6.773333333333355
65.82772717842323, -4.253333333333359
66.39758091286308, -2.2933333333333508
66.87899066390042, 0.7866666666666475
66.88036307053943, -1.7333333333333485
67.18457987551868, 4.146666666666647
67.70883921161825, 9.186666666666639
67.5350010373444, 5.826666666666654
68.06017531120332, 9.186666666666639
68.19375622406639, 5.826666666666654
68.19535736514523, 2.886666666666642
68.4606893153527, -0.4733333333333576
68.59083921161826, 2.46666666666664
68.98837966804979, -1.7333333333333485
68.9897520746888, -4.253333333333359
69.51721369294606, -5.093333333333348
69.386377593361, -6.773333333333355
69.82676763485478, -9.01333333333335
70.3519419087137, -5.65333333333335
70.17779875518673, -8.453333333333347
70.83335165975103, -2.573333333333352
70.83472406639004, -5.093333333333348
71.36172821576764, -5.093333333333348
71.23089211618257, -6.773333333333355
71.89010477178422, -7.613333333333344
72.1547505186722, -9.713333333333352
72.68198340248964, -10.133333333333354
73.0776939834025, -10.973333333333358
73.21127489626556, -14.333333333333343
73.52021887966805, -17.133333333333354
74.0473755186722, -17.413333333333355
73.87323236514523, -20.21333333333334
74.52878526970954, -14.333333333333343
74.39840663900415, -16.853333333333353
75.09863900414938, -12.373333333333349
74.9244958506224, -15.173333333333346
75.6238132780083, -9.01333333333335
75.44967012448133, -11.813333333333347
75.97438692946058, -7.613333333333344
76.10796784232366, -10.973333333333358
76.10956898340248, -13.913333333333355
76.41904668049793, -17.693333333333356
76.64114782157677, -22.31333333333336
76.77129771784232, -19.373333333333335
76.90647977178423, -25.673333333333346
77.03662966804978, -22.73333333333335
77.1718117219917, -29.03333333333336
77.30196161825727, -26.093333333333362
77.43714367219917, -32.393333333333345
77.56729356846473, -29.453333333333347
77.70247562240664, -35.75333333333336
77.8326255186722, -32.81333333333333
77.9678075726141, -39.113333333333344
78.09795746887967, -36.173333333333346
78.23313952282157, -42.47333333333336
78.36328941908714, -39.53333333333336
78.6286213692946, -42.893333333333345
78.76220228215769, -46.25333333333333
79.02684802904565, -48.35333333333335
79.55453838174274, -49.613333333333344
79.86378734439833, -52.97333333333336
80.08611721991701, -58.01333333333335
80.21603838174275, -54.653333333333336
80.39536618257262, -61.373333333333335
80.22107053941909, -63.893333333333345
80.66161307053942, -66.41333333333336
80.61952593360996, -69.77333333333334
81.14698755186723, -70.61333333333334
81.01615145228216, -72.29333333333335
81.71836618257262, -71.45333333333335
82.2426255186722, -66.41333333333336
82.06878734439834, -69.77333333333334
82.07015975103735, -72.29333333333335
82.45946576763487, -61.373333333333335
82.72113796680497, -58.01333333333335
82.59258921161825, -63.893333333333345
82.98601244813278, -60.53333333333333
83.24859958506224, -58.85333333333335
83.77651867219916, -60.53333333333333
84.3030653526971, -59.69333333333333
84.83006950207468, -59.69333333333333
85.35707365145228, -59.69333333333333
85.88407780082989, -59.69333333333333
85.75369917012449, -62.21333333333334
86.41108195020746, -59.69333333333333
86.93854356846472, -60.53333333333333
86.93991597510373, -63.05333333333334
87.467377593361, -63.893333333333345
87.33654149377594, -65.57333333333335
87.77708402489625, -68.09333333333333
88.12933506224067, -69.77333333333334
88.26291597510374, -73.13333333333333
88.57216493775934, -76.49333333333334
88.92395850622407, -77.33333333333334
