46.78212841079841, -31.60372413092236
47.08529450279832, -21.48457807362024
47.04349968423574, -25.699766987754145
47.04534357328997, -29.071449829777634
47.30118317956461, -13.052444160538897
47.30302706861884, -16.424127002562386
47.17948650198532, -32.441376586987616
47.56255445300194, -7.148487017370655
47.564398342056165, -10.520169859394173
47.437169997314186, -19.79405375977234
47.43901388636842, -23.165736601795857
47.69854127075152, -13.890096616604097
48.13077959654764, 2.1312504990527117
47.95622476608038, -1.2427737893888633
47.95806865513462, -4.6144566314123665
48.657209921530765, 7.195799101342189
48.482655091063506, 3.821774812900614
49.18533047814694, 9.16963843177679
49.010468332837306, 6.357561283672453
49.6696586697251, 10.580945260269615
49.671272072647554, 7.630722773499045
50.06655578864846, 10.586213514710266
50.201159689607366, 6.373366046994448
50.203003578661594, 3.001683204970945
50.46967603312984, -0.7879478226784045
50.73266070948962, 2.165786833719281
50.73611800146631, -4.156118495074793
50.99910267782609, -1.2023838386771217
51.30411265888023, 5.545079376601507
51.26208735418587, 1.7513508177205637
51.13278463425788, -3.7293898853811953
51.56594490458112, 10.606115809263883
51.82777715028201, 15.66715224192626
51.8333088174447, 5.552103715855736
52.051502355528775, 9.769634076407698
52.10067273030829, 0.4980916224475891
51.92565692757747, -2.0330119554881207
52.18610625648768, 5.55678660869188
52.323936963291494, -4.55650583256508
52.32578085234573, -7.928188674588597
52.32739425526818, -10.87841116135914
52.454392113878384, -1.183066905728026
52.6381663896168, -14.667456827403981
52.59637157105422, -18.882645741537885
52.59821546010845, -22.254328583561374
52.7235999157962, -9.608761841159662
52.909064423167656, -26.183861034690494
52.73420227785803, -28.995938182794816
53.12510675735513, -18.032700691777762
53.12695064640936, -21.40438353380128
53.4319606274635, -14.656920318522651
53.69379287316439, -9.595883885860275
53.52246484854204, -18.87035314784299
53.955625118865285, -4.534847453197912
53.78429709424293, -13.809316715180614
54.217457364566165, 0.5261889794644503
54.04659031220737, -9.591200993024131
54.47928961026706, 5.587225412126813
54.30842255790826, -4.530164560361769
54.69702217608757, 10.647676483184654
54.570254803609146, 0.5308718723005939
54.827477326674455, 14.021115410021721
54.96346414442404, 7.279505810788265
54.96507754734649, 4.329283324017695
55.09391929501092, 10.652944737625319
55.2310585434194, 1.8040333621271714
55.36128320787451, 5.598932644217172
55.49727002562409, -1.1426769550162845
55.62772517621097, 2.230761971820769
55.763711993960555, -4.510847627412687
56.02646618418856, -1.1356526157620692
56.29244718026146, -3.6609025776525925
56.555662342753024, -1.128628276507854
56.86251621286141, 2.2471520967472713
57.124348458562295, 7.308188529409648
57.38618070426318, 12.369224962071996
57.21531365190438, 2.251834989583415
57.603913270083694, 17.42967603312985
57.47714589760527, 7.312871422245792
57.866667460311696, 20.804871044780455
57.73805619877905, 14.059749275919899
57.73943911556972, 11.530987144402275
58.00081038900704, 17.434944287570517
58.394941674349056, 22.49773680504643
58.396324591139724, 19.96897467352879
58.92413783291352, 22.504761144300645
58.92598172196776, 19.13307830227714
58.92782561102199, 15.761395460253638
58.929669500076216, 12.38971261823012
58.931282902998674, 9.439490131459564
59.19795535746692, 5.649859103810229
59.19979924652115, 2.278176261786726
59.2014126494436, -0.6720462249838448
59.326566618999564, 12.394980872670786
59.3284105080538, 9.023298030647283
59.46808510391185, -4.46167725263318
59.469928992966075, -7.833360094656683
59.5966963654445, 2.283444516227391
59.59854025449873, -1.0882383257961123
59.780470641182916, -11.20094540544855
59.73867582262034, -15.416134319582454
59.740519711674565, -18.78781716160597
59.60914261656056, -20.475414667431266
59.86590416736232, -6.142250419204274
60.265567119867015, -11.19450642779887
60.267180522789474, -14.144728914569441
60.13649488607081, -17.096707486153548
60.52832131009502, -7.819311416148253
60.78923161126879, -1.0724335624741315
60.79107550032302, -4.444116404497635
60.66200326652681, -10.34631746285234
61.09424159232293, 5.675029652804497
61.05244677376035, 1.459840738670593
60.92475745675481, -6.971122451201694
61.35422994896959, 14.107748927490377
61.31243513040701, 9.892560013356473
61.18705067471926, -2.753006729045211
61.61421830561625, 22.540468202176243
61.57242348705367, 18.32527928804234
61.44703903136592, 5.6797125456406405
61.830567954646085, 30.12968140475172
61.83241184370032, 26.75799856272822
61.70702738801258, 14.11243182032652
62.14341446418072, 22.547492541430458
62.101619645618136, 18.332303627296554
62.41262226609854, 14.121797605998808
62.49805579227793, 19.180492592243098
62.67998617896211, 9.067785512590646
62.76541970514151, 14.126480498834951
62.77049040004064, 4.854352683270307
63.20826039299947, 10.76065127285662
63.03370556253221, 7.386626984415045
63.69059103810221, 15.824614513541576
63.69220444102467, 12.874392026771005
63.95334522833022, 19.199809525192194
64.21609941855823, 22.575004536842798
64.08748815702558, 15.829882767982241
64.47885360878624, 25.950199548493416
64.35024234725358, 19.20507777963286
64.78570747889461, 29.32597992174854
64.78924159958189, 22.863587807870147
65.1394268624647, 27.644821393572926
65.27403076342361, 23.431973925857122
65.27587465247784, 20.060291083833604
65.27771854153207, 16.6886082418101
65.58872116201246, 12.47810222051234
65.80645372783299, 17.538553291570196
66.06736402900675, 24.285431145244303
66.06920791806098, 20.9137483032208
66.07289569616945, 14.170382619173793
65.94244054558257, 10.79694369233674
66.32643044112629, 34.40399184094194
66.32827433018053, 31.032308998918424
66.33011821923476, 27.66062615689492
66.20335084675634, 17.543821546010847
66.6295965331262, 44.52313789824407
66.58780171456362, 40.30794898411017
66.58964560361785, 36.936266142086666
66.4642611479301, 24.290699399684968
66.46564406472078, 21.761937268167344
66.85654854421789, 32.7251747591844
66.98147202764207, 46.21366221209196
66.98331591669631, 42.84197937006846
67.11745884539165, 39.472052612858505
67.11930273444588, 36.100369770835
67.12299051255435, 29.357004086787995
67.12483440160858, 25.985321244764492
67.12667829066281, 22.61363840274099
67.12852217971704, 19.241955560717486
67.25344566314124, 32.73044301362505
67.3949641480535, 15.873784888321097
67.39680803710775, 12.50210204629758
67.39865192616197, 9.130419204274077
67.4004958152162, 5.758736362250573
67.40210921813866, 2.808513875480017
67.52357540958616, 22.618906657181654
67.5254192986404, 19.24722381515815
67.71288135248727, -0.980531790564811
67.6710865339247, -5.195720704698715
67.67246945071537, -7.724482836216339
67.79647098961244, 7.449846037702983
67.93107489057135, 3.236998569987165
68.24207751105175, -0.9735074513105957
68.06752268058449, -4.347531739752171
68.06890559737516, -6.876293871269809
68.45796618781803, 7.458626461770763
68.45981007687226, 4.0869436197472595
68.76297616887217, 14.206089677049391
68.72118135030959, 9.990900762915487
68.59349203330405, 1.5599375730431717
68.98785380477784, 6.201269735266166
69.11669555244227, 12.524931148873776
69.25129945340117, 8.312083681157958
69.29862593912645, 2.412224069221338
69.56598985199004, -2.641788024186809
69.82782209769093, 2.4192484084755534
69.83335376485363, -7.695800117594985
70.09503235313332, -2.3537901147639673
70.3514865890927, 12.541321273800278
70.30969177053012, 8.326132359666389
70.31153565958435, 4.954449517642871
70.1806195367339, 2.423931301311697
70.61147494573936, 20.974040548486144
70.56968012717678, 16.758851634352254
70.8365830677768, 12.547760251449972
70.83819647069924, 9.597537764679416
70.96335044025523, 22.664564862334046
71.09795434121413, 18.45171739461823
71.09979823026836, 15.080034552594725
71.14896860504787, 5.808492098634588
71.23440213122726, 10.867187084878893
71.37223283803108, 0.7538946436219334
71.37407672708531, -2.61778819840157
71.37569013000777, -5.5680106851721405
71.50084409956374, 7.49901641248249
71.50268798861796, 4.127333570458987
71.64236258447602, -9.357641712821476
71.64420647353023, -12.729324554844993
71.64581987645269, -15.679547041615564
71.77097384600867, -2.612519943960905
71.90557774696757, -6.825367411676723
72.21658036744796, -11.035873432974483
72.04202553698072, -14.409897721416087
72.04340845377138, -16.93865985293371
72.47656872409462, -2.6031541582886177
72.43477390553204, -6.818343072422522
72.7384009697955, 2.4578822743737305
72.99101377022524, 24.377332917153623
72.94921895166266, 20.16214400301972
72.9510628407169, 16.790461160996216
72.95290672977113, 13.418778318972713
72.95475061882536, 10.04709547694921
72.95659450787959, 6.675412634925706
72.8293661631376, -2.598471265452474
73.24362657065498, 46.2967835599335
73.20183175209239, 42.081594645799626
73.20367564114662, 38.70991180377611
73.20551953020086, 35.338228961752606
73.20736341925507, 31.966546119729102
73.20920730830932, 28.5948632777056
73.0911984088385, 2.462565167209874
73.09258132562917, -0.0661969643077498
73.4962393710847, 68.2162342027134
73.45444455252212, 64.00104528857949
73.45628844157635, 60.629362446555994
73.45813233063058, 57.257679604532484
73.45997621968482, 53.88599676250898
73.46182010873905, 50.51431392048548
73.34381120926822, 24.382015809989767
73.34565509832245, 21.010332967966264
73.34703801511313, 18.48157083644864
73.70844026974252, 83.39173379984176
73.71028415879675, 80.02005095781826
73.712128047851, 76.64836811579474
73.71397193690521, 73.27668527377125
73.72849256320728, 46.72468289283616
73.59826789875218, 42.92978361074614
73.59965081554286, 40.40102147922852
73.98041390524169, 69.90851460137485
73.98225779429592, 66.53683175935134
73.98410168335016, 63.16514891732784
73.98594557240438, 59.79346607530434
73.98778946145862, 56.421783233280834
73.98963335051285, 53.05010039125733
73.99147723956708, 49.678417549233814
74.1071812777201, 80.02531921225892
74.10902516677433, 76.6536363702354
74.11086905582857, 73.28195352821191
74.30201888778392, 46.31083223844193
74.26022406922132, 42.09564332430806
74.26206795827557, 38.72396048228454
74.2639118473298, 35.352277640261036
74.26575573638402, 31.980594798237533
74.26759962543827, 28.60891195621403
74.26944351449248, 25.237229114190527
74.13806641937848, 23.549631608365218
74.38560852490909, 54.74121006670974
74.3874524139633, 51.36952722468624
74.58044613497287, 21.026723092892766
74.5386513164103, 16.811534178758862
74.54049520546454, 13.439851336735359
74.54233909451877, 10.068168494711855
74.544182983573, 6.696485652688352
74.54602687262724, 3.324802810664849
74.54787076168145, -0.04688003135865415
74.41649366656746, -1.7344775371839631
74.66403577209806, 29.45710092116056
74.66587966115227, 26.085418079137057
74.85887338216185, -4.257386052656415
74.8168480774675, -8.051114611537372
75.11333007164582, 14.290381748099975
75.07153525308323, 10.07519283396607
75.07337914213747, 6.703509991942568
75.0752230311917, 3.3318271499190644
75.07706692024593, -0.039855692104438845
75.369630650184, 29.466466706832847
75.32783583162143, 25.251277792698957
75.32967972067566, 21.879594950675454
75.33152360972989, 18.50791210865195
75.58183154884183, 44.64196630396121
75.58367543789606, 41.27028346193771
75.5855193269503, 37.898600619914205
75.58736321600452, 34.5269177778907
75.4661275106888, 14.295064640936118
75.46797139974302, 10.923381798912615
75.84320282227917, 50.545923447129454
75.8450467113334, 47.17424060510595
75.72150614469987, 31.156991020680735
75.72335003375412, 27.785308178657232
75.72473295054479, 25.256546047139608
76.11194965193341, 42.96314922220367
76.11333256872409, 40.434387090686045
76.2424048025203, 46.33658814904072
76.50884677085676, 42.96841747664433
76.64298969955212, 39.59849071943438
76.64460310247458, 36.64826823266381
76.95537523682319, 32.859222566618996
76.78035943409238, 30.3281189886833
77.04080876300259, 37.9179175528633
77.1786394698064, 27.804625111606327
77.18048335886064, 24.432942269582824
77.18209676178309, 21.482719782812268
77.3090946203933, 31.17806403844338
77.44876921625134, 17.693088755162933
77.45038261917378, 14.742866268392362
77.75377919730548, 24.44055197044156
77.7119843787429, 20.225363056307657
77.76100109610121, 11.234794172516175
77.96598009596329, 39.616051567569926
77.96782398501753, 36.24436872554642
77.96966787407176, 32.87268588352292
77.97151176312599, 29.501003041499416
77.97888731934292, 16.014271673405403
78.21767095186591, 63.22134363136156
78.21951484092014, 59.84966078933806
78.22135872997437, 56.47797794731456
78.2232026190286, 53.10629510529105
78.22504650808284, 49.734612263267536
78.22689039713707, 46.36292942124403
78.2287342861913, 42.99124657922053
78.10565469182134, 26.131076284289463
78.10749858087557, 22.75939344226596
78.1093424699298, 19.387710600242457
78.11303024803826, 12.644344916195436
78.5134614876489, 86.82722105675772
78.47166666908632, 82.61203214262383
78.47351055814055, 79.24034930060031
78.47535444719477, 75.86866645857683
78.47719833624902, 72.49698361655331
78.47904222530323, 69.12530077452982
78.48088611435747, 65.7536179325063
78.36287721488665, 39.62131982201059
78.36472110394088, 36.24963697998709
78.36656499299511, 32.877954137963584
78.72566238630672, 102.00272065388609
78.72750627536095, 98.63103781186257
78.72935016441518, 95.25935496983908
78.73119405346941, 91.88767212781556
78.61549001531638, 61.54077046479048
78.61733390437061, 58.169087622766966
78.61871682116129, 55.64032549124934
79.04173570168625, 88.5200868170237
78.99994088312366, 84.30489790288979
79.0017847721779, 80.93321506086629
79.12348144975718, 100.322147487315
79.12532533881142, 96.95046464529149
79.12716922786565, 93.57878180326799
79.3127873926583, 76.72270903956853
79.39453314072924, 88.52476970985984
79.39637702978347, 85.15308686783632
79.53098093074237, 80.9402394001205
79.58015130552188, 71.66869694616038
79.5383564869593, 67.45350803202649
79.53973940374996, 64.92474590050887
79.66558483170128, 76.72739193240467
80.06524778420598, 71.67513592381007
80.06709167326021, 68.30345308178659
80.06870507618265, 65.35323059501602
80.37025776526012, 78.42259913908872
80.32846294669754, 74.20741022495483
80.63209001096101, 83.48363557175108
80.46260587539288, 70.83748346774487
80.8994539238246, 78.42962347834293
80.72443812109378, 75.89851990040722
80.98488745000398, 83.48831846458722
81.16681783668817, 73.37561138493479
81.12502301812559, 69.16042247080088
81.12686690717982, 65.78873962877738
81.25225136286758, 78.43430637117908
81.39376984777985, 61.57764824587511
81.39561373683408, 58.2059654038516
81.39722713975652, 55.25574291708104
81.5223811093125, 68.32277001473567
81.52422499836673, 64.95108717271216
81.66389959422477, 51.4661118894317
81.66574348327902, 48.0944290474082
81.66712640006969, 45.565666915890574
81.79251085575743, 58.21123365829226
81.79435474481167, 54.839550816268755
82.23719543266961, 51.47372159029044
82.06264060220236, 48.09969730184886
82.72136996682661, 53.16600198895189
82.59045384397616, 50.6354837726207
83.02822383693498, 56.541782362207016
83.55557610644522, 59.920489543484734
83.38102127597796, 56.54646525504316
84.08369666306137, 61.89432887391932
83.90883451775176, 59.082251725815
84.61104893257163, 65.27303605519704
84.43618678726199, 62.46095890709272
84.8730348356937, 70.05309891769079
85.13302319234035, 78.48581819237666
85.09122837377777, 74.27062927824275
84.96353905677223, 65.83966608837044
85.35075575816087, 83.54626926343451
85.22583227473669, 70.05778181052693
85.65576573921501, 90.29373247871314
85.61397092065243, 86.07854356457923
85.48489868685621, 80.17634250622456
85.48674257591045, 76.80465966420104
85.74811384934779, 82.70861680736928
86.13901832884488, 93.67185429838634
86.14063173176734, 90.72163181161577
86.71139222276261, 95.36530542025682
86.53637642003179, 92.83420184232112
86.97875613562618, 90.31129332684867
87.06418966180559, 95.36998831309296
87.20132891021407, 86.52107693759481
87.33155357466917, 90.31597621968481
87.51164007229912, 83.57495198205588
87.33662426956832, 81.04384840412018
87.73490430528233, 78.52035452704322
87.73674819433657, 75.1486716850197
87.73836159725901, 72.19844919824914
87.86535945586922, 81.89379345388028
88.00503405172726, 68.4088181705998
88.0068779407815, 65.03713532857631
88.00872182983574, 61.6654524865528
88.13364531325992, 75.15393993946037
88.13548920231415, 71.78225709743685
88.31926347805256, 58.29786717576091
88.27746865948998, 54.08267826162701
88.27931254854423, 50.710995419603506
88.14793545343022, 49.02339791377821
88.40469700423196, 63.35656216200521
88.59031516902462, 46.50048939830576
88.54852035046204, 42.28530048417187
88.55036423951626, 38.91361764214835
88.41898714440227, 37.22602013632306
88.675748695204, 51.55918438455005
88.81680620785272, 35.54544696975195
88.94680038617605, 39.7618066070949
