47.098141463414635, -0.04682926829266876
47.62734146341464, -0.04682926829266876
48.156541463414634, -0.04682926829266876
48.68574146341464, -0.04682926829266876
49.21494146341463, -0.04682926829266876
49.744141463414635, -0.04682926829266876
50.27334146341464, -0.04682926829266876
50.802541463414634, -0.04682926829266876
51.33174146341463, -0.04682926829266876
51.86094146341463, -0.04682926829266876
52.390141463414636, -0.04682926829266876
52.91934146341464, -0.04682926829266876
53.448541463414635, -0.04682926829266876
53.97774146341463, -0.04682926829266876
54.506941463414634, -0.04682926829266876
55.03614146341464, -0.04682926829266876
55.56534146341464, -0.04682926829266876
56.094541463414636, -0.04682926829266876
56.62374146341463, -0.04682926829266876
57.152941463414635, -0.04682926829266876
57.68214146341464, -0.04682926829266876
58.21318536585366, -1.7326829268292556
58.742385365853664, -1.7326829268292556
59.27158536585366, -1.7326829268292556
59.800785365853656, -1.7326829268292556
60.32998536585366, -1.7326829268292556
60.85918536585366, -1.7326829268292556
61.388385365853665, -1.7326829268292556
61.91574146341463, -0.04682926829266876
62.44494146341464, -0.04682926829266876
62.97414146341464, -0.04682926829266876
63.50334146341464, -0.04682926829266876
64.03254146341465, -0.04682926829266876
64.56266341463416, -0.8897560975609622
64.43220731707318, -2.575609756097549
65.09186341463415, -0.8897560975609622
65.62014146341464, -0.04682926829266876
66.15026341463415, -0.8897560975609622
66.68038536585365, -1.7326829268292556
67.20958536585366, -1.7326829268292556
67.73694146341464, -0.04682926829266876
68.26614146341464, -0.04682926829266876
68.79534146341464, -0.04682926829266876
69.32454146341465, -0.04682926829266876
69.85189756097562, 1.639024390243918
69.72236341463415, -0.8897560975609622
70.38109756097562, 1.639024390243918
70.91029756097561, 1.639024390243918
71.21530975609757, 5.010731707317092
71.73867073170732, 10.349268292682936
71.56626585365854, 6.696585365853679
72.22131219512195, 12.597073170731719
72.74774634146343, 15.125853658536599
72.75051219512196, 12.597073170731719
73.27971219512196, 12.597073170731719
73.14925609756098, 10.911219512195146
73.54892195121951, 8.382439024390266
73.8158268292683, 6.275121951219532
74.34456585365854, 6.696585365853679
74.91571463414635, 8.66341463414635
74.74238780487806, 5.853658536585385
75.39743414634148, 11.75414634146344
75.26790000000001, 9.225365853658559
75.65834634146343, 15.125853658536599
76.1857024390244, 16.811707317073186
76.05616829268294, 14.282926829268305
76.7149024390244, 16.811707317073186
77.24225853658538, 18.497560975609773
77.1127243902439, 15.968780487804892
77.8152512195122, 18.77853658536587
78.30065853658537, 18.497560975609773
78.82985853658538, 18.497560975609773
79.4028512195122, 18.77853658536587
79.88733658536586, 19.340487804878066
79.89010243902439, 16.811707317073186
80.2870024390244, 16.811707317073186
80.42299024390245, 13.440000000000012
80.73476341463416, 10.630243902439048
81.22140000000002, 9.225365853658559
81.79531463414634, 8.66341463414635
82.31929024390244, 13.440000000000012
82.1465780487805, 10.068292682926852
82.84449512195123, 17.092682926829283
82.67116829268294, 14.282926829268305
83.32805853658539, 18.497560975609773
83.85725853658538, 18.497560975609773
84.38645853658538, 18.497560975609773
84.91565853658537, 18.497560975609773
85.44485853658537, 18.497560975609773
85.97405853658537, 18.497560975609773
86.50325853658538, 18.497560975609773
87.03338048780489, 17.65463414634148
86.90292439024391, 15.968780487804892
87.30259024390244, 13.440000000000012
87.61436341463416, 10.630243902439048
88.10100000000001, 9.225365853658559
87.97054390243903, 7.539512195121972
88.63112195121953, 8.382439024390266
