47.0421528066528, -7.613333333333344
47.61105197505197, -5.65333333333335
48.09147609147609, -3.4133333333333553
48.616825363825356, -1.7333333333333485
49.14354989604989, -0.8933333333333451
49.671649688149685, -0.8933333333333451
50.19974948024947, -0.8933333333333451
50.72784927234927, -0.8933333333333451
51.255949064449055, -0.8933333333333451
51.78404885654885, -0.8933333333333451
52.316274428274426, -3.4133333333333553
52.32040020790021, -5.933333333333351
52.89250831600831, -5.933333333333351
52.72060083160083, -8.453333333333347
53.414648648648644, -2.2933333333333508
53.24319958419958, -5.093333333333348
53.896448024948015, -0.8933333333333451
54.42592307692307, -1.7333333333333485
54.29664864864864, -3.4133333333333553
54.955398128898125, -2.573333333333352
55.22288617463617, -4.673333333333346
55.75029833679833, -4.253333333333359
56.278398128898125, -4.253333333333359
56.80374740124739, -2.573333333333352
56.675848232848224, -5.093333333333348
57.329096673596666, -0.8933333333333451
57.2011975051975, -3.4133333333333553
57.85169542619542, 2.46666666666664
57.85650883575883, -0.4733333333333576
58.15425259875259, 5.826666666666654
58.36604261954261, 10.866666666666646
58.66859979209978, 14.226666666666645
58.5035686070686, 7.506666666666646
59.15406652806652, 13.386666666666642
59.1581923076923, 10.866666666666646
59.6862920997921, 10.866666666666646
59.6911055093555, 7.926666666666648
60.25289916839916, 14.226666666666645
60.08236694386694, 10.866666666666646
60.72873908523908, 19.26666666666665
60.73355249480249, 16.32666666666664
61.12756444906444, 17.586666666666645
61.26509043659043, 14.226666666666645
61.532578482328475, 12.126666666666651
61.80144178794178, 9.186666666666639
62.32954158004158, 9.186666666666639
62.85901663201662, 8.34666666666665
62.72974220374219, 6.666666666666643
63.388491683991674, 7.506666666666646
63.91659147609147, 7.506666666666646
64.44194074844074, 9.186666666666639
64.31404158004158, 6.666666666666643
64.9714158004158, 8.34666666666665
64.84214137214136, 6.666666666666643
65.5022661122661, 6.666666666666643
65.37299168399167, 4.98666666666665
66.07529106029105, 6.106666666666641
66.60064033264032, 7.7866666666666475
67.0824397089397, 9.186666666666639
67.6105395010395, 9.186666666666639
68.14001455301454, 8.34666666666665
68.14414033264032, 5.826666666666654
68.67361538461537, 4.98666666666665
68.54434095634095, 3.3066666666666436
69.20584095634095, 2.46666666666664
69.73394074844074, 2.46666666666664
69.87009147609146, -0.05333333333335588
70.26204054054054, 2.46666666666664
70.78738981288981, 4.146666666666647
70.79220322245322, 1.2066666666666492
71.06037889812889, -1.3133333333333468
71.32924220374218, -4.253333333333359
71.3340556133056, -7.1933333333333564
71.60360654885653, -10.553333333333356
71.73081808731808, -7.613333333333344
71.91785343035342, -14.333333333333343
72.14614656964656, -19.373333333333335
72.27267047817047, -16.01333333333335
72.4597058212058, -22.73333333333335
72.73200727650726, -27.77333333333334
73.21884927234926, -29.453333333333347
73.48633731808731, -31.55333333333334
74.01512474012472, -31.973333333333358
73.8858503118503, -33.653333333333336
74.54597505197503, -33.653333333333336
74.41670062370062, -35.33333333333334
75.07269958419957, -32.81333333333333
74.94480041580042, -35.33333333333334
75.37479833679832, -29.173333333333346
75.85384719334718, -26.093333333333362
75.72594802494801, -28.613333333333344
76.38194698544697, -26.093333333333362
76.91142203742203, -26.933333333333337
76.91692307692307, -30.29333333333335
77.18716164241164, -34.07333333333335
77.31437318087316, -31.133333333333354
77.50140852390851, -37.85333333333335
77.72901403326402, -42.47333333333336
77.98962577962577, -40.373333333333335
78.12715176715176, -43.73333333333335
78.51910083160082, -41.21333333333334
79.04720062370062, -41.21333333333334
79.35984303534302, -44.01333333333335
79.84485135135134, -44.57333333333335
80.11233939708939, -46.673333333333346
80.64250207900207, -47.93333333333334
80.90930249480249, -49.613333333333344
81.16785135135135, -46.25333333333333
81.46995010395008, -42.613333333333344
81.94899896049895, -39.53333333333336
81.82109979209977, -42.05333333333334
82.47434823284823, -37.85333333333335
83.00107276507276, -37.01333333333335
82.87179833679832, -38.69333333333336
83.5305478170478, -37.85333333333335
84.0586476091476, -37.85333333333335
84.58674740124738, -37.85333333333335
85.11484719334717, -37.85333333333335
85.64294698544697, -37.85333333333335
86.17104677754676, -37.85333333333335
86.43853482328481, -39.95333333333335
86.96732224532224, -40.373333333333335
86.8380478170478, -42.05333333333334
87.49817255717254, -42.05333333333334
87.50229833679832, -44.57333333333335
88.07119750519749, -42.613333333333344
87.89974844074843, -45.413333333333355
88.55024636174635, -39.53333333333336
88.42234719334718, -42.05333333333334
