47.183786713286715, -5.612307692307709
47.669657692307695, -4.202517482517493
48.19978286713287, -2.5107692307692417
48.066095104895105, -5.048391608391611
48.72898286713286, -2.5107692307692417
49.25818286713287, -2.5107692307692417
49.78738286713286, -2.5107692307692417
50.316582867132865, -2.5107692307692417
50.84578286713287, -2.5107692307692417
51.374982867132864, -2.5107692307692417
51.90418286713287, -2.5107692307692417
52.43338286713286, -2.5107692307692417
52.696826398601395, -4.625454545454559
53.22718286713287, -2.5107692307692417
53.093495104895105, -5.048391608391611
53.75730804195804, -0.8190209790209906
54.28697062937063, 0.026853146853142107
54.81663321678322, 0.8727272727272606
55.34583321678322, 0.8727272727272606
55.87457062937062, 0.026853146853142107
55.74134545454545, -1.664895104895109
56.40330804195804, -0.8190209790209906
56.932508041958044, -0.8190209790209906
57.46263321678322, 0.8727272727272606
57.99275839160839, 2.5644755244755117
57.85907062937063, 0.026853146853142107
58.52288356643356, 4.256223776223763
58.38919580419581, 1.7186013986013933
59.052083566433566, 4.256223776223763
59.58128356643357, 4.256223776223763
60.11048356643357, 4.256223776223763
60.63968356643357, 4.256223776223763
61.167958391608394, 2.5644755244755117
61.43140192307692, 0.44979020979019424
61.96037062937063, 0.026853146853142107
61.82714545454546, -1.664895104895109
62.48910804195805, -0.8190209790209906
62.75255157342657, -2.933706293706308
63.28290804195804, -0.8190209790209906
63.81210804195804, -0.8190209790209906
64.34130804195804, -0.8190209790209906
64.87050804195805, -0.8190209790209906
65.39878286713287, -2.5107692307692417
65.92798286713287, -2.5107692307692417
66.23853321678322, 0.8727272727272606
66.76973776223777, 4.538181818181812
66.59179580419581, 1.7186013986013933
67.25422097902097, 3.4103496503496444
67.25283321678322, 0.8727272727272606
67.78157062937063, 0.026853146853142107
67.78018286713288, -2.5107692307692417
68.30938286713287, -2.5107692307692417
68.83812027972027, -3.35664335664336
68.70489510489512, -5.048391608391611
69.3663951048951, -5.048391608391611
69.36500734265735, -7.586013986013995
69.89420734265735, -7.586013986013995
70.15765087412588, -9.700699300699313
70.68661958041957, -10.123636363636379
70.5533944055944, -11.81538461538463
70.99300664335664, -14.353006993007
70.81521888111888, -16.890629370629384
71.25483111888113, -19.428251748251753
71.20841818181819, -23.65762237762239
71.47070524475524, -27.88699300699301
71.46908618881119, -30.84755244755246
71.60485559440559, -24.50349650349652
71.73160454545454, -34.653986013986014
71.86575489510489, -31.27048951048951
71.99435419580419, -38.037482517482516
71.99273513986014, -40.998041958041966
72.25548479020979, -44.38153846153847
72.38940384615384, -41.42097902097902
72.7839909090909, -45.65034965034965
72.78214055944056, -49.033846153846156
73.31457867132866, -43.112727272727284
73.31295961538461, -46.073286713286734
73.58102902097903, -39.72923076923078
73.84747937062937, -36.34573426573428
73.84424125874126, -42.26685314685315
74.11022902097903, -39.72923076923078
74.37297867132867, -43.112727272727284
74.37135961538462, -46.073286713286734
74.63410926573427, -49.456783216783236
74.76802832167832, -46.496223776223786
74.8973215034965, -51.994405594405606
75.4267527972028, -51.571468531468554
75.69019632867133, -53.68615384615387
76.21916503496504, -54.109090909090924
76.08593986013986, -55.80083916083916
76.74790244755243, -54.954965034965056
77.05506048951048, -57.77454545454549
77.53938951048951, -59.18433566433566
77.53800174825176, -61.72195804195806
78.11145594405593, -61.44
78.64158111888112, -59.74825174825176
79.12698951048952, -59.18433566433566
79.12560174825175, -61.72195804195806
79.65480174825174, -61.72195804195806
79.65341398601399, -64.25958041958043
80.22902692307692, -60.030209790209796
80.05077657342657, -63.4137062937063
80.76023146853146, -56.36475524475526
80.58228951048952, -59.18433566433566
81.24471468531468, -57.492587412587426
81.11148951048952, -59.18433566433566
81.77298951048951, -59.18433566433566
81.63976433566434, -60.87608391608393
82.30080174825176, -61.72195804195806
82.83000174825176, -61.72195804195806
83.35920174825175, -61.72195804195806
83.88840174825175, -61.72195804195806
84.41852692307691, -60.030209790209796
84.28483916083916, -62.567832167832194
84.94772692307691, -60.030209790209796
85.47692692307692, -60.030209790209796
86.00612692307692, -60.030209790209796
86.26957045454546, -62.14489510489511
86.79900174825175, -61.72195804195806
87.37338111888113, -59.74825174825176
87.86017727272727, -56.64671328671329
87.85878951048952, -59.18433566433566
88.38798951048952, -59.18433566433566
88.25476433566433, -60.87608391608393
88.78442692307692, -60.030209790209796
