47.091545547476784, -2.5511724137931253
47.578267828090134, -1.4388965517241559
48.108572629760275, -1.4388965517241559
48.63887743143042, -1.4388965517241559
49.16918223310057, -1.4388965517241559
49.69948703477071, -1.4388965517241559
50.22979183644086, -1.4388965517241559
50.76009663811101, -1.4388965517241559
51.29040143978116, -1.4388965517241559
51.820706241451305, -1.4388965517241559
52.084715744006914, -3.524413793103463
52.61524912533295, -3.107310344827596
53.14555392700309, -3.107310344827596
53.67585872867325, -3.107310344827596
54.2505079835865, -2.8292413793103464
54.7373826506371, -1.4388965517241559
55.268144611619036, -0.6046896551724217
55.79890657260097, 0.2295172413792983
56.32921137427111, 0.2295172413792983
56.85860185731769, -1.4388965517241559
57.388906658987835, -1.4388965517241559
57.919211460657976, -1.4388965517241559
58.44951626232813, -1.4388965517241559
58.980735382621845, 0.2295172413792983
59.51012586566842, -1.4388965517241559
60.04043066733857, -1.4388965517241559
60.57027830969693, -2.273103448275876
60.43678779065582, -3.94151724137933
61.10104027067886, -1.4388965517241559
60.96709259232597, -3.94151724137933
61.67568952559212, -1.1608275862069064
62.16256419264272, 0.2295172413792983
62.692868994312875, 0.2295172413792983
62.956878496868484, -1.8560000000000088
63.48741187819452, -1.4388965517241559
64.01771667986466, -1.4388965517241559
64.54802148153482, -1.4388965517241559
65.07832628320496, -1.4388965517241559
65.65297553811821, -1.1608275862069064
66.13939304585703, -0.6046896551724217
66.00590252681593, -2.273103448275876
66.6692406882154, -1.4388965517241559
67.19954548988554, -1.4388965517241559
67.72985029155569, -1.4388965517241559
67.86105501403787, -3.94151724137933
68.26015509322585, -1.4388965517241559
68.79045989489597, -1.4388965517241559
69.32076469656613, -1.4388965517241559
69.85106949823628, -1.4388965517241559
70.38228861852998, 0.2295172413792983
70.2483409401771, -2.273103448275876
70.91259342020012, 0.2295172413792983
71.44335538118207, 1.0637241379310183
72.0184617954071, 2.1759999999999877
72.55059523432439, 5.512827586206882
72.3723031027284, 2.7321379310344724
73.03838421999856, 8.57158620689654
72.90443654164568, 6.068965517241367
73.61394779353539, 10.51806896551723
73.43565566193939, 7.7373793103448065
74.10173677920957, 13.576827586206889
73.96778910085668, 11.074206896551715
74.63295589950329, 15.245241379310329
75.2085194730401, 17.19172413793102
75.0302273414441, 14.411034482758609
75.74065291195738, 20.528551724137913
75.56236078036139, 17.747862068965503
76.27187203225111, 22.196965517241367
76.75874669930171, 23.58731034482757
77.28996581959544, 25.255724137931026
77.82027062126558, 25.255724137931026
78.3958341948024, 27.2022068965517
78.2175420632064, 24.42151724137929
78.88316602116478, 29.42675862068964
79.41392798214673, 30.260965517241374
79.94423278381687, 30.260965517241374
80.47408042617522, 29.42675862068964
80.47270894823987, 26.924137931034466
81.00255659059823, 26.089931034482746
81.00118511266288, 23.58731034482757
81.53148991433304, 23.58731034482757
81.79549941688865, 21.501793103448264
82.32694711683826, 23.58731034482757
82.19299943848536, 21.084689655172397
82.90251069037507, 25.53379310344826
83.38938535742568, 26.924137931034466
83.9206044777194, 28.59255172413792
84.45090927938955, 28.59255172413792
84.98121408105969, 28.59255172413792
85.55586333597294, 28.870620689655155
86.04273800302354, 30.260965517241374
86.57349996400548, 31.095172413793094
87.10426192498741, 31.929379310344814
87.41208252825571, 29.148689655172404
87.89743333093371, 27.7583448275862
87.89606185299836, 25.255724137931026
88.4259094953567, 24.42151724137929
88.42453801742136, 21.91889655172413
88.95484281909151, 21.91889655172413
