46.95749321450273, 3.6656616221534506
47.44321976909055, 3.092811713301913
47.97243508203363, 3.0788113081976007
48.50165039497671, 3.0648109030932886
49.030865707919794, 3.0508104979889623
49.29777030585376, 0.9437495297896561
49.826526230504356, 1.3497612778147783
50.3539039902775, 3.015809485228189
50.88128175005064, 4.681857692641586
51.45429208021066, 4.9466986891982
51.937874822766865, 6.333905494950685
52.24290864897712, 9.68583581700861
52.724347579501725, 13.033099337365101
52.594800081020864, 10.516526519864613
53.25448166902978, 12.179074626001935
53.784615758557834, 11.325049914638754
54.0515203564918, 9.217988946439448
54.31934373101073, 6.270903671981273
54.586248328944706, 4.1638427037819525
55.11592303018027, 3.7298301455482203
54.98545675511444, 2.053281634306572
55.64605711970833, 2.8758054341850396
56.17619120923638, 2.021780722821873
56.04572493417055, 0.34523221158022466
56.70632529876444, 1.1677560114586782
57.23370305853757, 2.833804218872089
57.10415556005672, 0.31723140137160044
57.76108081831072, 4.4998524262855
58.29121490783877, 3.6458277149223335
58.16074863277294, 1.969279203680685
58.821348997366826, 2.791803003559153
58.82410532712174, 0.27173008478257543
59.39435932752684, 3.056644000115753
59.87794207008305, 4.443850805868237
60.40715738302613, 4.429850400763925
60.937291472554186, 3.5758256894007587
60.940047802309095, 1.0557527706241672
61.47018189183716, 0.20172805926100068
61.47293822159206, -2.318344859515591
62.00215353453514, -2.332345264619903
61.872606036054286, -4.848918082120406
62.529531294308285, -0.6662970572064921
62.399983795827424, -3.182869874706995
63.0578278306664, 0.15972684394805015
63.58612436702451, 0.9857507451025924
64.1153396799676, 0.9717503399982803
64.38224427790156, -1.1353106282010401
64.91100020255216, -0.7292988801759179
65.44021551549524, -0.74329928528023
66.01322584565526, -0.4784582887236155
66.49497103504153, 2.5887971295465917
66.36542353656067, 0.07222431204608881
67.06614381203161, 4.533686738620915
66.89280129633381, 1.7382725194594997
67.59352157180474, 6.199734946034326
68.07802309094592, 6.746917445527956
68.0816981972858, 3.3868202204925097
68.61275106339883, 1.6927712028704747
68.61550739315373, -0.8273017159061169
69.14472270609681, -0.841302121010429
69.67485679562488, -1.6953268323735955
69.54439052055905, -3.371875343615244
70.2059096617379, -3.389375849995645
70.07544338667208, -5.065924361237279
70.4751112011343, -7.596497583842108
70.78688272230099, -10.404745507682506
71.27352805347377, -11.817619722792898
71.27628438322868, -14.337692641569475
71.80641847275675, -15.191717352932656
71.81009357909662, -18.551814577968102
72.07883573020052, -22.338924158685145
72.2079238403889, -19.402339188055194
72.39167915738304, -26.12720043982752
72.61769819728582, -31.173179779507493
72.7463269191817, -27.81658265574815
72.93008223617582, -34.541443907520474
73.20020255215718, -39.58858994762578
73.02655377759774, -42.10399606470095
73.47032286813854, -44.63573598773111
73.74044318411993, -49.68288202783644
73.56679440956046, -52.19828814491159
74.01056350010128, -54.730028067941774
73.83691472554183, -57.24543418501692
74.28068381608264, -59.777174108047106
74.550804132064, -64.82432014815244
74.82092444804536, -69.87146618825777
75.3078760380798, -71.56434850545442
75.83709135102289, -71.57834891055874
76.36814421713592, -73.27239792818081
76.63504881506988, -75.37945889638011
77.16472351630546, -75.81347145461383
77.6948576058335, -76.66749616597703
78.22591047194653, -78.36154518359906
78.49281506988049, -80.46860615179837
79.02157099453109, -80.06259440377325
79.55078630747418, -80.07659480887757
80.08092039700223, -80.93061952024074
79.9504541219364, -82.60716803148237
80.61197326311526, -82.62466853786277
80.61472959287016, -85.14474145663935
81.14394490581326, -85.15874186174368
81.41084950374722, -87.26580282994298
81.93960542839781, -86.85979108191789
81.94236175815273, -89.37986400069447
82.51077820538788, -84.91490147284351
82.3374356896901, -87.71031569200498
82.99252339477417, -81.84764605457333
82.8629758962933, -84.36421887207383
83.52173870771725, -81.86164645967763
84.05095402066033, -81.87564686478196
84.3178586185943, -83.98270783298126
84.8466145432449, -83.57669608495617
85.37582985618798, -83.59069649006047
85.90504516913106, -83.60469689516479
86.43426048207414, -83.61869730026912
86.96347579501722, -83.63269770537342
87.23038039295119, -85.73975867357275
87.76005509418675, -86.17377123180647
87.62958881912093, -87.85031974304813
88.29110796029978, -87.86782024942853
88.82124204982783, -88.72184496079167
