47.1321999841076, -0.04650519031142153
46.99824756015632, -2.557785467128028
47.66342226813358, 1.627681660899654
47.5294698441823, -0.8835986159169522
48.194185810981644, 2.464775086505199
48.060692128208274, 0.7905882352941234
48.724031871473876, 1.627681660899654
49.25433667314402, 1.627681660899654
49.784641474814165, 1.627681660899654
50.314946276484314, 1.627681660899654
50.84525107815446, 1.627681660899654
51.3755558798246, 1.627681660899654
51.90586068149475, 1.627681660899654
52.435706741986984, 0.7905882352941234
52.302213059213614, -0.8835986159169522
52.9650940613013, -0.8835986159169522
52.83160037852793, -2.557785467128028
53.494940121793526, -1.720692041522483
54.06958990399549, -1.441660899653968
54.600812188021465, 0.23252595155710765
55.08768949151563, 1.627681660899654
55.618911775541605, 3.3018685121107296
55.48495935159032, 0.7905882352941234
56.14875783603384, 2.464775086505199
56.01526415326047, 0.7905882352941234
56.67860389652607, 1.627681660899654
57.20890869819621, 1.627681660899654
57.74013098222218, 3.3018685121107296
58.27043578389233, 3.3018685121107296
58.80074058556248, 3.3018685121107296
59.33058664605471, 2.464775086505199
59.19709296328135, 0.7905882352941234
59.85997396536902, 0.7905882352941234
59.72648028259566, -0.8835986159169522
60.389820025861255, -0.04650519031142153
60.9201248275314, -0.04650519031142153
61.49477460973337, 0.23252595155710765
61.98165191322752, 1.627681660899654
62.51195671489767, 1.627681660899654
63.04226151656782, 1.627681660899654
63.57256631823796, 1.627681660899654
64.10287111990812, 1.627681660899654
64.63317592157826, 1.627681660899654
65.1634807232484, 1.627681660899654
65.69378552491855, 1.627681660899654
66.2240903265887, 1.627681660899654
66.48809587447897, -0.46505190311418687
67.01863004673808, -0.04650519031142153
67.54893484840824, -0.04650519031142153
68.07923965007838, -0.04650519031142153
68.60954445174852, -0.04650519031142153
69.18419423395048, 0.23252595155710765
69.67107153744465, 1.627681660899654
69.66969531391089, -0.8835986159169522
70.20091759793686, 0.7905882352941234
70.06742391516352, -0.8835986159169522
70.73076365842911, -0.04650519031142153
71.26106846009925, -0.04650519031142153
71.7913732617694, -0.04650519031142153
72.32259554579537, 1.627681660899654
72.18864312184408, -0.8835986159169522
72.85290034746552, 1.627681660899654
73.3841226314915, 3.3018685121107296
73.25017020754021, 0.7905882352941234
73.91442743316165, 3.3018685121107296
74.44473223483179, 3.3018685121107296
75.01938201703375, 3.5808996539792446
75.55228635204543, 8.324429065743942
75.37368312011037, 4.976055363321805
76.0411515339772, 13.346989619377169
75.906740368848, 9.998615916955018
76.35233096632979, 16.695363321799306
76.88538821506742, 21.717923875432533
76.70678498313238, 18.36955017301038
77.37333591464339, 25.06629757785467
77.2393834906921, 22.555017301038063
77.94890317920118, 27.019515570934246
78.48012546322715, 28.69370242214532
79.01134774725313, 30.367889273356397
79.49914253310314, 33.43723183391003
79.36519010915185, 30.925951557093427
80.03036481712911, 35.11141868512111
80.0287592230064, 32.18159169550172
80.42625845367004, 31.763044982698958
80.55699968937593, 28.41467128027682
80.86450919230518, 25.06629757785467
81.34924570363575, 22.555017301038063
81.34786948010199, 20.043737024221457
81.87817428177215, 20.043737024221457
81.87656868764944, 17.11391003460207
82.41031404815395, 23.392110726643594
82.40870845403126, 20.462283737024222
82.274526659491, 17.53245674740485
82.67730141370069, 26.740484429065745
82.98848084605325, 30.088858131487882
82.80850139058447, 24.22920415224914
83.47551106327339, 31.763044982698958
84.00581586494354, 31.763044982698958
84.53612066661368, 31.763044982698958
85.06642546828382, 31.763044982698958
85.06504924475009, 29.25176470588235
85.59673026995398, 31.763044982698958
86.12795255397995, 33.43723183391003
86.65917483800592, 35.11141868512111
86.52522241405464, 32.6001384083045
87.18993838085399, 35.94851211072664
87.18810341614233, 32.6001384083045
87.45119148167677, 28.833217993079586
87.58537327621703, 31.763044982698958
87.7145089178002, 25.484844290657435
87.84869071234044, 28.41467128027682
87.9778263539236, 22.136470588235298
88.11200814846384, 25.06629757785467
88.50744304382688, 20.880830449826988
88.50606682029314, 18.36955017301038
88.90379542154574, 18.36955017301038
