46.808100418410035, 24.45751140786963
47.1180920502092, 20.660225970580115
46.94095397489539, 18.133796743107922
47.383799163179916, 15.599138104471336
47.2066610878661, 13.07270887699913
47.649506276150625, 10.538050238362544
47.47236820083681, 8.011621010890352
47.870928870292886, 5.477550187336917
47.73807531380753, 2.9505331447815735
48.18092050209204, 8.845142798827894
48.71233472803347, 14.176625603195689
48.53519665271966, 10.526293936699105
49.19946443514644, 14.732110856793
49.19946443514644, 12.20333036898812
49.730878661087864, 11.353349758721762
49.730878661087864, 8.824569270916882
50.30657740585774, 12.469610601664925
50.12943933054393, 9.66220576443662
50.79370711297071, 17.23973000160369
50.66085355648535, 13.869786129780039
51.325121338912126, 17.232676220605626
51.90082008368201, 18.910888283060984
51.7236820083682, 16.384459055588792
52.38794979079498, 23.961983292755846
52.25509623430962, 20.592039420932196
52.653656903765686, 27.33016371932999
52.919364016736395, 29.855417316635837
52.919364016736395, 25.64078317029437
53.45077824267782, 26.4766562185646
53.45077824267782, 23.94787573075972
53.982192468619246, 23.097895120493362
53.84933891213389, 21.413804907206313
54.513606694560664, 21.404987680958726
55.04502092050209, 20.55500707069237
55.576435146443515, 19.705026460426026
55.576435146443515, 17.176245972621146
55.974995815899575, 18.856809295409178
56.10784937238493, 15.483338533086496
56.10784937238493, 12.111631216013322
56.10784937238493, 9.161387313574295
56.37355648535565, 5.364689691367943
56.37355648535565, 2.41444578892893
56.506410041841, 8.734633563191593
56.63926359832635, -1.3822518332774223
56.77211715481171, 1.9876920385462427
56.90497071129707, -4.757486040849628
56.90497071129707, -7.707729943288655
57.48066945606695, -4.484152027174744
57.96779916317991, -1.3998862857725811
57.83494560669456, -3.9269033283279384
58.23350627615062, 1.9682941408015608
58.49921338912134, 5.336474567375703
58.36635983263598, -0.5622497922528282
58.8092050209205, 8.704067178866666
58.632066945606695, 2.8059306343213137
59.29633472803347, 7.854674383683488
59.29633472803347, 4.482967066610328
59.82774895397489, 2.790059627075678
59.82774895397489, -0.5816476899974958
60.093456066945606, -4.799808726837995
60.093456066945606, -7.7500526292770076
60.22630962343096, -1.4298648550143298
60.40344769874477, -11.547338066566539
60.359163179916315, -15.761384397824827
60.66915481171548, -19.98013324974849
60.624870292887024, -24.19417958100678
60.93486192468619, -28.41292843293047
60.75772384937238, -31.782284489670957
61.42199163179916, -28.419394398845355
61.2891380753138, -30.946411441400727
61.99769037656904, -25.055328677853396
61.820552301255226, -28.424684734593882
62.21911297071129, -20.000706777659502
62.52910460251046, -16.633114166168525
62.35196652719665, -23.374177539982185
62.794811715481174, -11.57908008105781
63.01623430962343, -6.524458180863917
63.32622594142259, -3.1568655693729397
63.149087866108786, -9.8979289431866
63.547648535564846, 1.897756330820954
63.81335564853556, 5.265936757395082
63.680502092050205, -0.6327876022334351
63.94620920502092, 8.635880629218747
64.07906276150626, 1.8907025498228904
64.21191631799164, 5.260646421646541
64.38905439330543, -1.48511947283248
64.65476150627615, -6.546207338941258
64.92046861924686, -11.607295205050036
64.74333054393306, -14.133724432522229
65.45188284518828, -11.333373376292002
65.9832970711297, -7.968719840216892
65.80615899581589, -10.776124677445182
66.51471129707113, -2.918212645605209
66.33757322175732, -6.568544312101778
67.0018410041841, 0.16605309579696836
66.86898744769874, -2.360963946758389
67.53325523012552, 0.15899931479890483
68.06466945606694, -0.6909812954674379
68.06466945606694, -4.062688612540612
67.93181589958158, -5.74677882582769
68.37466108786612, -8.281437464464261
68.33037656903765, -12.495483795722578
68.59608368200837, -16.713644832563062
68.59608368200837, -19.663888735002104
68.72893723849373, -13.343700960739397
68.86179079497907, -23.460586357208456
68.99464435146443, -20.09064248538479
69.12749790794979, -26.835820564780647
69.43748953974895, -29.649691367923822
69.92461924686192, -31.061035382619195
69.92461924686192, -34.01127928505821
70.45603347280334, -33.59686965142214
70.98744769874477, -33.6039234324202
70.98744769874477, -36.554167334859216
71.29743933054394, -40.35145277214875
71.25315481171548, -44.565499103407035
71.51886192468619, -48.78366014024752
71.51886192468619, -51.73390404268656
71.65171548117155, -45.413716268423855
71.82885355648534, -55.531189479976064
71.7845690376569, -59.74523581123438
72.05027615062761, -63.12047001880657
72.18312970711297, -60.5934529762512
72.58169037656904, -63.97045062907293
73.11310460251046, -65.66335806860758
73.11310460251046, -68.61360197104659
73.42309623430961, -72.41088740833612
73.64451882845188, -77.04992404472759
73.77737238493724, -74.10144358753809
73.9102259414226, -80.42515825229978
74.04307949790794, -77.47667779511028
74.44164016736401, -80.85367544793198
74.97305439330543, -80.86072922893004
74.97305439330543, -83.38950971673492
75.23876150627615, -77.49254880235591
75.50446861924686, -74.12436837578178
75.3716150627615, -80.8660195646786
75.81446025104603, -70.75677576429081
75.63732217573221, -76.65491230883615
76.30158995815898, -69.0773880716691
76.83300418410042, -69.08444185266717
77.36441841004184, -69.93442246293353
77.23156485355648, -71.6185126762206
77.89583263598325, -71.62732990246818
77.76297907949791, -73.31142011575525
78.42724686192469, -73.32023734200283
78.29439330543933, -75.0043275552899
78.9586610878661, -75.01314478153748
78.82580753138075, -76.69723499482453
79.49007531380752, -76.7060522210721
79.35722175732218, -78.39014243435918
80.02148953974896, -78.39895966060675
80.02148953974896, -80.92774014841163
80.55290376569037, -81.77772075867799
80.42005020920502, -83.46181097196506
80.86289539748954, -85.99646961060165
81.35002510460251, -88.53171606432142
81.35002510460251, -91.0604965521263
81.88143933054394, -91.06755033312436
81.88143933054394, -94.0177942355634
82.4571380753138, -87.70348461213243
82.28, -91.07284066887291
82.28, -93.6016211566778
82.94426778242678, -82.65238960243755
82.94426778242678, -85.6026335048766
83.4756820083682, -82.65944338343562
84.05138075313806, -82.38610936976073
84.53851046025105, -82.67355094543174
85.06992468619246, -83.5235315556981
84.9370711297071, -85.20762176898515
85.60133891213388, -84.37351216596443
85.8670460251046, -86.48435612963422
86.39846025104603, -84.38409283746154
86.26560669456066, -86.91110988001691
86.92987447698744, -84.3911466184596
87.46128870292887, -85.24112722872596
87.32843514644351, -86.92521744201301
87.9927029288703, -86.93403466826061
87.85984937238493, -88.61812488154766
88.5241171548117, -88.62694210779523
88.5241171548117, -91.15572259560011
88.92267782426778, -91.16101293134867
