47.15884959393611, -3.967029778018386
46.98128441797509, -6.774076015159707
47.688794542501356, -0.5860002165673848
47.511229366540334, -3.393046453708706
48.173660552246886, 0.8332404981050416
48.74593386031402, 1.1359497563616827
49.274961949106654, 2.8369429344883628
49.75982795885219, 4.256183649160803
50.28748075798592, 3.4371222523010374
50.15453609095831, 1.7518466702761373
50.59340630211153, -0.4707378451542894
51.07643859231185, -2.4115698971304766
51.60546668110449, -0.7105767190037824
52.13311948023822, -1.5296381158635626
52.660313849485654, -3.188717704385482
53.232128727666485, -3.7260266377909943
53.716994737412016, -2.306785923118568
54.24556439631835, -1.445810936654027
54.774134055224685, -0.5848359501895004
55.30224528424472, -0.563879155387113
55.87451859231186, -0.2611698971304719
56.35938460205739, 1.1580708175419687
56.22598150514347, -1.367222956145099
56.887495831077416, 1.1790276123443562
57.41514863021115, 0.35996621548457597
57.282203963183534, -1.3253093665403384
57.94280142934488, -0.4590951813752042
58.47091265836491, -0.4381383865728168
58.99902388738494, -0.41718159177044356
59.30556067135896, -3.2050174336762325
59.78935701136979, -3.745819166215483
60.0958937953438, -6.533655008121286
60.579231705468324, -7.91447493232269
60.57785641580942, -10.43452950730915
61.15104658364916, -8.451783865728189
60.97348140768814, -11.25883010286951
61.68190839198701, -3.3907179209528806
61.503884786139686, -7.037782349756355
62.16677440173254, -1.9714772062804542
62.694885630752566, -1.9505204114780668
63.22299685977261, -1.9295636166756793
63.75019122902003, -3.588643205197613
64.27921931781268, -1.8876500270709187
64.14581622089875, -4.412943800757972
64.8082474066053, -0.1866568489442244
64.6748443096914, -2.711950622631292
65.33544177585273, -1.845736437466158
65.86309457498646, -2.664797834325924
65.73014990795885, -4.350073416350824
66.39028894423389, -4.323877422847858
66.38891365457499, -6.843931997834332
66.91702488359502, -6.822975203031945
67.22356166756903, -9.610811044937734
67.70735800757986, -10.151612777476984
67.97049676231727, -11.821170763400104
68.2805481754196, -8.168867135896036
68.81049312398484, -4.787837574445035
68.63292794802382, -7.594883811586357
69.29444227395777, -5.048633243096901
69.8225535029778, -5.027676448294514
70.35020630211153, -5.846737845154294
70.21726163508393, -7.5320134271792085
70.87785910124526, -6.665799242014074
71.40597033026529, -6.644842447211701
71.93408155928532, -6.623885652409314
71.93224783974011, -9.983958419057927
71.93064333513806, -12.924022089875464
72.19263601515972, -16.693625554953954
72.19103151055766, -19.633689225771505
72.32649754195992, -13.328313589604747
72.45302419057931, -23.403292690850023
72.45141968597726, -26.343356361667574
72.58688571737953, -20.037980725500816
72.75742163508392, -30.11121342717921
72.580009269085, -32.63825360043312
72.97471740119113, -35.142590579317826
72.97311289658907, -38.08265425013535
73.23533479155387, -41.432248619382804
73.36896710341094, -38.48694574986466
73.49755668651868, -44.7818429886302
73.63118899837573, -41.83654011911206
73.75977858148349, -48.13143735787763
73.89341089334056, -45.186134488359485
74.06578053059013, -51.89929442338929
73.88836816459123, -54.4263345966432
74.28307629669735, -56.93067157552788
74.28124257715214, -60.290744342176495
74.58747374120195, -63.63859231185704
74.54117232268544, -67.84042966973472
74.8036234325934, -70.77001494315105
75.11741868976719, -60.25756275040605
75.07111727125067, -64.45940010828373
74.93771417433676, -66.98469388197078
75.34204933405522, -51.848648835950186
75.34021561451002, -55.2087216025988
75.61160610720086, -41.75795213860313
75.60977238765565, -45.118024905251744
75.60793866811045, -48.47809767190036
75.47086813210612, -57.72353697888467
75.8770370113698, -39.22741916621548
76.13948812127775, -42.15700443963185
76.66737013535462, -42.55605674066054
76.66599484569572, -45.076111315647
77.19410607471576, -45.055154520844596
77.72221730373579, -45.03419772604222
77.8528698213319, -47.54901310232809
78.25032853275582, -45.01324093123985
78.82260184082295, -44.71053167298321
79.30746785056849, -43.29129095831077
79.30609256090958, -45.81134553329723
79.83466221981593, -44.9503705468327
80.36231501894964, -45.76943194369245
80.36093972929075, -48.28948651867891
80.88859252842448, -49.10854791553872
80.88675880887926, -52.468620682187336
81.14875148890093, -56.23822414726585
81.28238380075798, -53.29292127774771
81.45475343800757, -60.00608121277746
81.67273684894423, -63.77743107742286
81.9388553979426, -59.98687081754194
81.80316015159718, -66.71225554953979
81.80178486193827, -69.23231012452625
82.20657845154304, -53.25624688684353
82.20474473199783, -56.61631965349214
82.06904948565241, -63.34170438548996
82.51831077422847, -46.52387655657823
82.47200935571196, -50.72571391445588
82.74110769897129, -41.47503540877098
83.00355880887926, -44.40462068218734
83.26876049810502, -42.29409680563076
83.79595486735246, -43.95317639415266
83.66301020032485, -45.63845197617756
84.3236076664862, -44.772237791012444
84.85171889550622, -44.75128099621007
85.38074698429887, -43.05028781808336
85.24734388738494, -45.575581591770415
85.9088582133189, -43.02933102328099
86.48113152138603, -42.72662176502435
86.96553910124527, -42.14739924201406
86.83259443421764, -43.83267482403896
87.49227504060639, -44.64649702219815
87.75518458040065, -46.73606410395236
88.06164495939362, -49.66390297780184
87.8842325933947, -52.19094315105578
88.32294999458581, -54.693533730373574
88.1455376285869, -57.22057390362751
88.584255029778, -59.72316448294531
88.80223844071466, -63.49451434759068
