47.117355509355505, -9.076363636363624
46.94132224532224, -11.895944055944057
47.6454553014553, -5.692867132867121
47.469422037422035, -8.512447552447554
48.173555093555095, -4.00111888111887
48.657646569646566, -1.7454545454545496
49.22975467775468, -0.6176223776223679
49.757854469854465, 1.0741258741258832
50.24194594594594, 0.7921678321678343
50.77004573804574, 0.7921678321678343
50.90207068607069, -1.7454545454545496
51.34215384615384, 1.0741258741258832
51.87025363825364, 2.7658741258741344
52.354345114345115, 1.6380419580419527
52.222320166320166, -0.053706293706298425
52.8824449064449, -0.8995804195804169
53.454553014553014, -0.6176223776223679
53.93864449064449, 0.7921678321678343
54.46674428274428, 0.7921678321678343
55.03885239085239, 1.0741258741258832
55.56695218295218, 4.457622377622371
55.39091891891891, 1.6380419580419527
56.05104365904366, 5.867412587412588
56.57914345114345, 4.175664335664337
57.107243243243246, 4.175664335664337
57.635343035343034, 5.867412587412588
57.503318087318085, 3.329790209790204
58.16344282744282, 5.867412587412588
58.691542619542616, 5.867412587412588
59.21964241164241, 5.867412587412588
59.747742203742206, 5.867412587412588
60.05580041580042, 3.047832167832155
60.53989189189189, 1.6380419580419527
60.40786694386694, -0.053706293706298425
60.847950103950105, -2.309370629370619
61.332041580041576, -0.8995804195804169
61.86014137214137, -0.8995804195804169
62.388241164241165, -0.8995804195804169
62.91634095634095, -1.7454545454545496
63.44444074844075, -2.591328671328668
63.972540540540535, -2.591328671328668
63.84051559251559, -5.128951048951052
64.50064033264033, -1.7454545454545496
65.02874012474012, -0.8995804195804169
65.55683991683992, 0.7921678321678343
65.42481496881497, -1.7454545454545496
66.12894802494802, 1.0741258741258832
66.65704781704781, 2.7658741258741344
67.14113929313929, 2.4839160839160854
67.40518918918919, 0.3692307692307679
67.93328898128898, -0.8995804195804169
68.46138877338876, -2.591328671328668
68.98948856548856, -3.4372027972028008
68.85746361746362, -5.128951048951052
69.51758835758835, -4.283076923076919
70.04568814968815, -5.128951048951052
69.9136632016632, -6.820699300699303
70.57378794178794, -5.97482517482517
71.10188773388774, -6.820699300699303
71.10188773388774, -9.358321678321673
71.62998752598753, -10.204195804195805
71.62998752598753, -12.741818181818175
72.15808731808733, -13.587692307692308
72.6861871101871, -14.43356643356644
73.2142869022869, -15.279440559440559
73.08226195426195, -16.971188811188824
73.74238669438668, -17.81706293706293
74.05044490644491, -20.63664335664336
74.40251143451144, -21.20055944055943
74.53453638253637, -24.584055944055933
74.79858627858627, -27.12167832167833
75.10664449064448, -24.3020979020979
75.63474428274428, -20.918601398601396
75.45871101871101, -23.73818181818183
76.11883575883576, -20.354685314685327
76.11883575883576, -22.892307692307696
76.64693555093555, -23.73818181818183
76.64693555093555, -26.2758041958042
77.17503534303535, -26.2758041958042
77.70313513513514, -26.2758041958042
77.70313513513514, -28.813426573426568
78.27524324324324, -25.993846153846135
78.80334303534303, -24.3020979020979
79.28743451143451, -24.584055944055933
79.81553430353429, -24.584055944055933
80.07958419958419, -26.69874125874125
80.60768399168398, -27.12167832167833
80.47565904365905, -28.813426573426568
81.13578378378378, -27.967552447552436
81.66388357588357, -27.967552447552436
82.23599168399167, -27.6855944055944
82.72008316008316, -26.2758041958042
83.24818295218296, -26.2758041958042
83.82029106029105, -25.993846153846135
84.34839085239085, -22.610349650349633
84.17235758835758, -25.429930069930066
84.83248232848233, -19.508811188811194
84.70045738045738, -22.046433566433564
85.36058212058211, -19.508811188811194
85.8886819126819, -19.508811188811194
86.4167817047817, -19.508811188811194
86.9448814968815, -20.354685314685327
86.9448814968815, -22.892307692307696
87.47298128898129, -22.892307692307696
87.73703118503119, -25.006993006993014
88.26513097713098, -24.584055944055933
88.52918087318088, -26.69874125874125
